"","Var.1","Var.2","Var.3","Var.4","Var.5","Var.6","Var.7","Var.8","Var.9","Var.10","Var.11"
"1","Player","Finn","Markoon","Nukeduck","Patrik","Mikyx","Armut","Elyoya","Reeker","UNF0RGIVEN","Kaiser"
"2","Role","TOP","JUNGLE","MID","ADC","SUPPORT","TOP","JUNGLE","MID","ADC","SUPPORT"
"3","Level","18","16","18","16","13","18","17","18","18","13"
"4","Kills","2","2","3","1","0","5","3","2","6","0"
"5","Deaths","3","3","1","2","7","3","2","0","0","3"
"6","Assists","2","4","4","5","7","6","5","10","7","8"
"7","KDA","1.3","2","7","3","1","3.7","4","Perfect KDA","Perfect KDA","2.7"
"8","CS","316","198","344","337","44","314","234","356","393","54"
"9","CS in Team's Jungle","19","171","27","22","0","11","191","61","37","0"
"10","CS in Enemy Jungle","","","","","","","","","",""
"11","CSM","8","5","8.7","8.5","1.1","7.9","5.9","9","9.9","1.4"
"12","Golds","14626","11456","15361","15515","8099","15656","13168","15734","18982","8819"
"13","GPM","369","289","387","391","204","395","332","397","479","222"
"14","GOLD%","22.5%","17.6%","23.6%","23.8%","12.4%","21.6%","18.2%","21.7%","26.2%","12.2%"
"15","Vision Score","38","36","76","48","124","42","74","51","55","142"
"16","Wards placed","17","13","26","17","86","16","28","11","13","65"
"17","Wards destroyed","9","9","5","17","14","5","25","8","17","29"
"18","Control Wards Purchased","3","12","3","6","29","6","15","7","2","24"
"19","Detector Wards Placed","3","10","3","6","25","6","15","7","2","22"
"20","VSPM","0.96","0.91","1.92","1.21","3.13","1.06","1.87","1.29","1.39","3.58"
"21","WPM","0.43","0.33","0.66","0.43","2.17","0.4","0.71","0.28","0.33","1.64"
"22","VWPM","0.08","0.3","0.08","0.15","0.73","0.15","0.38","0.18","0.05","0.61"
"23","WCPM","0.23","0.23","0.13","0.43","0.35","0.13","0.63","0.2","0.43","0.73"
"24","VS%","11.8%","11.2%","23.6%","14.9%","38.5%","11.5%","20.3%","14%","15.1%","39%"
"25","Total damage to Champion","20066","10465","9127","19602","5646","16058","11974","18650","25451","3525"
"26","Physical Damage","2764","9300","274","18031","0","1152","10064","133","19611","988"
"27","Magic Damage","9851","727","8728","730","5646","13815","618","17366","4730","1825"
"28","True Damage","7451","438","125","841","0","1091","1292","1151","1110","712"
"29","DPM","506","264","230","494","142","405","302","470","642","89"
"30","DMG%","30.9%","16.1%","14.1%","30.2%","8.7%","21.2%","15.8%","24.7%","33.6%","4.7%"
"31","K+A Per Minute","0.1","0.15","0.18","0.15","0.18","0.28","0.2","0.3","0.33","0.2"
"32","KP%","50%","75%","87.5%","75%","87.5%","68.8%","50%","75%","81.3%","50%"
"33","Solo kills","","","","","","","","","",""
"34","Double kills","0","0","0","0","0","1","0","0","1","0"
"35","Triple kills","0","0","0","0","0","0","0","0","0","0"
"36","Quadra kills","0","0","0","0","0","0","0","0","0","0"
"37","Penta kills","0","0","0","0","0","0","0","0","0","0"
"38","GD@15","-167","-1286","744","-519","-354","167","1286","-744","519","354"
"39","CSD@15","-6","-13","11","5","-3","6","13","-11","-5","3"
"40","XPD@15","-472","-1009","246","220","174","472","1009","-246","-220","-174"
"41","LVLD@15","0","-1","0","0","0","0","1","0","0","0"
"42","Objectives Stolen","0","1","0","0","0","0","1","0","0","0"
"43","Damage dealt to turrets","6684","0","1027","835","0","1132","2199","2272","6818","0"
"44","Damage dealt to buildings","6684","0","1027","835","0","1132","2199","2272","6818","0"
"45","Total heal","4710","17925","2929","10743","1431","4077","11457","1257","1879","917"
"46","Total Heals On Teammates","0","0","0","6423","0","0","0","0","0","0"
"47","Damage self mitigated","25398","24817","6583","9645","38247","24292","32865","11857","8176","20012"
"48","Total Damage Shielded On Teammates","0","0","0","998","1057","0","199","0","0","0"
"49","Time ccing others","5","9","18","23","22","6","17","16","28","43"
"50","Total Time CC Dealt","62","557","48","532","49","153","742","463","399","303"
"51","Total damage taken","28867","35893","12467","13689","24988","30859","34505","8983","14096","10827"
"52","Total Time Spent Dead","78","130","61","33","199","141","63","0","0","108"
