"","Var.1","Var.2","Var.3","Var.4","Var.5","Var.6","Var.7","Var.8","Var.9","Var.10","Var.11"
"1","Player","Whiteknight","Zanzarah","Dajor","Kobbe","Promisq","HiRit","Shlatan","Vetheo","Neon","Mersa"
"2","Role","TOP","JUNGLE","MID","ADC","SUPPORT","TOP","JUNGLE","MID","ADC","SUPPORT"
"3","Level","18","16","17","18","14","18","17","18","18","15"
"4","Kills","3","2","4","5","1","5","2","9","6","1"
"5","Deaths","3","4","8","2","6","2","4","4","3","2"
"6","Assists","6","11","8","6","7","6","12","8","7","17"
"7","KDA","3","3.3","1.5","5.5","1.3","5.5","3.5","4.3","4.3","9"
"8","CS","364","189","242","412","52","371","211","372","334","40"
"9","CS in Team's Jungle","32","148","2","39","0","36","185","35","54","0"
"10","CS in Enemy Jungle","","","","","","","","","",""
"11","CSM","8.7","4.5","5.8","9.9","1.2","8.9","5.1","8.9","8","1"
"12","Golds","16868","12194","14404","18169","9029","19257","13977","19358","17675","10669"
"13","GPM","405","293","346","436","217","462","335","465","424","256"
"14","GOLD%","23.9%","17.3%","20.4%","25.7%","12.8%","23.8%","17.3%","23.9%","21.8%","13.2%"
"15","Vision Score","56","72","54","47","124","48","56","53","43","168"
"16","Wards placed","20","21","13","13","66","12","20","15","18","120"
"17","Wards destroyed","11","27","16","15","25","14","12","9","13","19"
"18","Control Wards Purchased","6","19","10","2","25","6","20","5","8","24"
"19","Detector Wards Placed","6","19","9","2","23","6","19","4","7","24"
"20","VSPM","1.34","1.73","1.3","1.13","2.98","1.15","1.34","1.27","1.03","4.03"
"21","WPM","0.48","0.5","0.31","0.31","1.58","0.29","0.48","0.36","0.43","2.88"
"22","VWPM","0.14","0.46","0.24","0.05","0.6","0.14","0.48","0.12","0.19","0.58"
"23","WCPM","0.26","0.65","0.38","0.36","0.6","0.34","0.29","0.22","0.31","0.46"
"24","VS%","15.9%","20.4%","15.3%","13.3%","35.1%","13%","15.2%","14.4%","11.7%","45.7%"
"25","Total damage to Champion","31485","12379","22220","29708","4968","22058","13351","35862","29090","7967"
"26","Physical Damage","29686","8684","1003","28167","897","18966","8194","796","25750","1340"
"27","Magic Damage","1799","2854","21088","1269","2878","2928","3971","34170","2005","5087"
"28","True Damage","0","841","129","272","1193","164","1186","896","1335","1540"
"29","DPM","756","297","533","713","119","529","320","861","698","191"
"30","DMG%","31.2%","12.3%","22.1%","29.5%","4.9%","20.4%","12.3%","33.1%","26.9%","7.4%"
"31","K+A Per Minute","0.22","0.31","0.29","0.26","0.19","0.26","0.34","0.41","0.31","0.43"
"32","KP%","60%","86.7%","80%","73.3%","53.3%","47.8%","60.9%","73.9%","56.5%","78.3%"
"33","Solo kills","","","","","","","","","",""
"34","Double kills","0","0","0","0","0","2","0","0","1","0"
"35","Triple kills","0","0","0","0","0","0","0","0","0","0"
"36","Quadra kills","0","0","0","0","0","0","0","0","0","0"
"37","Penta kills","0","0","0","0","0","0","0","0","0","0"
"38","GD@15","-263","-715","-2738","-216","-644","263","715","2738","216","644"
"39","CSD@15","8","-9","-36","5","2","-8","9","36","-5","-2"
"40","XPD@15","64","-34","-726","188","-675","-64","34","726","-188","675"
"41","LVLD@15","0","0","-1","0","-1","0","0","1","0","1"
"42","Objectives Stolen","0","0","0","0","0","0","0","0","0","0"
"43","Damage dealt to turrets","2639","1614","2507","1282","78","3797","1265","3795","9337","0"
"44","Damage dealt to buildings","2639","1614","2507","1282","78","3797","1265","3795","9337","0"
"45","Total heal","4726","26935","2321","3601","1516","4279","23915","3675","3278","11985"
"46","Total Heals On Teammates","0","0","0","798","0","0","0","0","0","3107"
"47","Damage self mitigated","23846","42802","12342","9115","19510","37660","51998","11844","18929","35980"
"48","Total Damage Shielded On Teammates","0","0","0","0","0","0","0","0","0","8318"
"49","Time ccing others","32","52","27","11","48","31","23","25","10","23"
"50","Total Time CC Dealt","416","591","739","129","262","612","287","358","241","79"
"51","Total damage taken","27510","51237","19488","18052","19331","28646","48666","18719","17936","23510"
"52","Total Time Spent Dead","97","159","322","107","200","106","182","220","114","71"
