"","Var.1","Var.2","Var.3","Var.4","Var.5","Var.6","Var.7","Var.8","Var.9","Var.10","Var.11"
"1","Player","Jenax","Gilius","Sertuss","Jezu","Treatz","Alphari","Selfmade","Perkz","Carzzy","Labrov"
"2","Role","TOP","JUNGLE","MID","ADC","SUPPORT","TOP","JUNGLE","MID","ADC","SUPPORT"
"3","Level","15","14","17","15","12","17","15","17","16","13"
"4","Kills","1","4","2","5","1","4","4","2","2","0"
"5","Deaths","3","4","1","2","2","1","3","3","3","3"
"6","Assists","3","5","8","3","10","4","7","9","5","8"
"7","KDA","1.3","2.3","10","4","5.5","8","3.7","3.7","2.3","2.7"
"8","CS","214","173","307","285","30","312","186","260","334","33"
"9","CS in Team's Jungle","8","142","13","31","0","29","165","22","68","1"
"10","CS in Enemy Jungle","","","","","","","","","",""
"11","CSM","6.3","5.1","9","8.3","0.9","9.1","5.4","7.6","9.8","1"
"12","Golds","10004","10999","13207","13746","7316","16049","12096","12455","15393","7737"
"13","GPM","293","322","386","402","214","469","354","364","450","226"
"14","GOLD%","18.1%","19.9%","23.9%","24.9%","13.2%","25.2%","19%","19.5%","24.2%","12.1%"
"15","Vision Score","42","45","31","32","97","37","35","36","59","95"
"16","Wards placed","17","8","16","13","55","17","8","9","16","54"
"17","Wards destroyed","7","13","7","8","9","3","10","9","16","7"
"18","Control Wards Purchased","6","8","6","6","15","6","9","1","6","17"
"19","Detector Wards Placed","6","7","5","5","15","6","7","1","5","15"
"20","VSPM","1.23","1.32","0.91","0.94","2.84","1.08","1.02","1.05","1.73","2.78"
"21","WPM","0.5","0.23","0.47","0.38","1.61","0.5","0.23","0.26","0.47","1.58"
"22","VWPM","0.18","0.23","0.18","0.18","0.44","0.18","0.26","0.03","0.18","0.5"
"23","WCPM","0.2","0.38","0.2","0.23","0.26","0.09","0.29","0.26","0.47","0.2"
"24","VS%","17%","18.2%","12.6%","13%","39.3%","14.1%","13.4%","13.7%","22.5%","36.3%"
"25","Total damage to Champion","15062","13311","28502","16336","6756","22848","18191","14313","20988","6165"
"26","Physical Damage","15062","9396","345","14397","316","12992","15355","763","17394","533"
"27","Magic Damage","0","3011","28157","1338","5683","6246","1688","13120","1322","4874"
"28","True Damage","0","904","0","601","757","3610","1148","430","2272","758"
"29","DPM","441","389","834","478","198","668","532","419","614","180"
"30","DMG%","18.8%","16.6%","35.6%","20.4%","8.4%","27.7%","22%","17.3%","25.4%","7.5%"
"31","K+A Per Minute","0.12","0.26","0.29","0.23","0.32","0.23","0.32","0.32","0.2","0.23"
"32","KP%","30.8%","69.2%","76.9%","61.5%","84.6%","66.7%","91.7%","91.7%","58.3%","66.7%"
"33","Solo kills","","","","","1","","","","",""
"34","Double kills","0","0","0","1","0","0","1","0","0","0"
"35","Triple kills","0","0","0","0","0","0","0","0","0","0"
"36","Quadra kills","0","0","0","0","0","0","0","0","0","0"
"37","Penta kills","0","0","0","0","0","0","0","0","0","0"
"38","GD@15","-1445","1419","513","-632","278","1445","-1419","-513","632","-278"
"39","CSD@15","-39","1","0","-11","-10","39","-1","0","11","10"
"40","XPD@15","-1451","614","425","-13","-8","1451","-614","-425","13","8"
"41","LVLD@15","-1","1","0","0","0","1","-1","0","0","0"
"42","Objectives Stolen","0","0","0","0","0","0","0","0","0","0"
"43","Damage dealt to turrets","1355","806","418","2412","121","5870","3422","413","10062","112"
"44","Damage dealt to buildings","1355","806","418","2412","121","5870","3422","413","10062","112"
"45","Total heal","10552","14463","3456","2466","3465","7631","20426","10150","2277","3760"
"46","Total Heals On Teammates","0","0","0","591","725","0","0","6675","1215","490"
"47","Damage self mitigated","25273","40154","15037","18775","15187","20404","27328","6077","8902","22738"
"48","Total Damage Shielded On Teammates","0","0","0","0","4391","0","0","924","0","3996"
"49","Time ccing others","16","27","19","12","33","15","31","34","7","15"
"50","Total Time CC Dealt","187","182","380","259","78","413","946","383","93","110"
"51","Total damage taken","31114","36417","13185","11073","12723","24644","37487","14839","18038","17989"
"52","Total Time Spent Dead","53","135","0","81","71","32","61","44","112","54"
