"","Var.1","Var.2","Var.3","Var.4","Var.5","Var.6","Var.7","Var.8","Var.9","Var.10","Var.11"
"1","Player","Alphari","Haru","Perkz","Labrov","Carzzy","Irrelevant","Shlatan","Vetheo","Neon","Mersa"
"2","Role","TOP","JUNGLE","MID","ADC","SUPPORT","TOP","JUNGLE","MID","ADC","SUPPORT"
"3","Level","16","13","16","14","13","14","12","15","14","11"
"4","Kills","0","3","7","0","3","1","0","2","1","0"
"5","Deaths","1","0","1","2","0","2","2","3","4","2"
"6","Assists","2","6","6","11","8","0","2","0","1","4"
"7","KDA","2","Perfect KDA","13","5.5","Perfect KDA","0.5","1","0.7","0.5","2"
"8","CS","256","153","305","155","44","198","140","277","239","28"
"9","CS in Team's Jungle","3","110","45","3","11","5","114","4","8","0"
"10","CS in Enemy Jungle","","","","","","","","","",""
"11","CSM","8.9","5.3","10.6","5.4","1.5","6.9","4.8","9.6","8.3","1"
"12","Golds","11039","10385","15265","9276","10162","10153","7419","11241","10664","5896"
"13","GPM","382","359","528","321","352","351","257","389","369","204"
"14","GOLD%","19.7%","18.5%","27.2%","16.5%","18.1%","22.4%","16.4%","24.8%","23.5%","13%"
"15","Vision Score","36","47","20","25","66","17","36","18","26","60"
"16","Wards placed","12","11","9","11","32","9","12","5","11","35"
"17","Wards destroyed","5","8","0","4","5","4","6","5","5","5"
"18","Control Wards Purchased","5","10","0","4","2","1","9","2","7","8"
"19","Detector Wards Placed","4","9","0","4","2","1","8","1","6","7"
"20","VSPM","1.25","1.63","0.69","0.87","2.28","0.59","1.25","0.62","0.9","2.08"
"21","WPM","0.42","0.38","0.31","0.38","1.11","0.31","0.42","0.17","0.38","1.21"
"22","VWPM","0.17","0.35","0","0.14","0.07","0.03","0.31","0.07","0.24","0.28"
"23","WCPM","0.17","0.28","0","0.14","0.17","0.14","0.21","0.17","0.17","0.17"
"24","VS%","18.6%","24.2%","10.3%","12.9%","34%","10.8%","22.9%","11.5%","16.6%","38.2%"
"25","Total damage to Champion","12082","4472","28058","8145","20870","9739","5376","13277","21738","3723"
"26","Physical Damage","10636","2652","899","821","18308","6583","4062","1303","20694","613"
"27","Magic Damage","1446","1535","25551","7324","618","3156","682","11974","904","2688"
"28","True Damage","0","285","1608","0","1944","0","632","0","140","422"
"29","DPM","418","155","971","282","722","337","186","459","752","129"
"30","DMG%","16.4%","6.1%","38.1%","11.1%","28.3%","18.1%","10%","24.7%","40.4%","6.9%"
"31","K+A Per Minute","0.07","0.31","0.45","0.38","0.38","0.03","0.07","0.07","0.07","0.14"
"32","KP%","15.4%","69.2%","100%","84.6%","84.6%","25%","50%","50%","50%","100%"
"33","Solo kills","","","","","","","","","",""
"34","Double kills","0","0","0","0","0","0","0","0","0","0"
"35","Triple kills","0","0","0","0","0","0","0","0","0","0"
"36","Quadra kills","0","0","0","0","0","0","0","0","0","0"
"37","Penta kills","0","0","0","0","0","0","0","0","0","0"
"38","GD@15","1037","1112","659","-1055","1122","-1037","-1112","-659","1055","-1122"
"39","CSD@15","35","14","7","-36","-13","-35","-14","-7","36","13"
"40","XPD@15","350","661","461","-839","459","-350","-661","-461","839","-459"
"41","LVLD@15","1","1","1","0","0","-1","-1","-1","0","0"
"42","Objectives Stolen","0","0","0","0","0","0","0","0","0","0"
"43","Damage dealt to turrets","7476","3861","5983","1963","6072","9634","66","3644","3661","0"
"44","Damage dealt to buildings","7476","3861","5983","1963","6072","9634","66","3644","3661","0"
"45","Total heal","1942","13788","3465","6591","12874","4720","6845","4064","2770","4529"
"46","Total Heals On Teammates","0","0","332","0","7438","0","0","0","261","1119"
"47","Damage self mitigated","16418","23795","4543","25946","3815","22601","20654","16010","11509","20237"
"48","Total Damage Shielded On Teammates","0","0","0","1629","1668","0","0","0","0","2835"
"49","Time ccing others","28","20","32","19","21","10","25","11","17","20"
"50","Total Time CC Dealt","437","1000","540","1153","240","738","1004","449","161","57"
"51","Total damage taken","18024","22089","10781","20785","7563","21031","21987","19955","13091","18300"
"52","Total Time Spent Dead","35","0","14","20","0","16","76","104","146","48"
