"","Var.1","Var.2","Var.3","Var.4","Var.5","Var.6","Var.7","Var.8","Var.9","Var.10","Var.11"
"1","Player","Irrelevant","Shlatan","Vetheo","Neon","Mersa","Agresivoo","Cinkrof","Nuclearint","xmatty","Erdote"
"2","Role","TOP","JUNGLE","MID","ADC","SUPPORT","TOP","JUNGLE","MID","ADC","SUPPORT"
"3","Level","15","14","17","16","11","16","13","15","13","9"
"4","Kills","1","2","6","5","1","2","2","0","0","0"
"5","Deaths","1","0","0","0","3","3","3","3","1","5"
"6","Assists","10","7","6","3","11","2","1","4","1","2"
"7","KDA","11","Perfect KDA","Perfect KDA","Perfect KDA","4","1.3","1","1.3","1","0.4"
"8","CS","199","155","310","315","32","274","164","253","227","21"
"9","CS in Team's Jungle","0","125","20","50","0","16","143","8","8","0"
"10","CS in Enemy Jungle","","","","","","","","","",""
"11","CSM","6.6","5.2","10.3","10.5","1.1","9.1","5.5","8.4","7.6","0.7"
"12","Golds","10705","9898","15244","15591","7548","13177","9166","9725","9465","5772"
"13","GPM","357","330","508","520","252","439","306","324","316","192"
"14","GOLD%","18.1%","16.8%","25.8%","26.4%","12.8%","27.9%","19.4%","20.6%","20%","12.2%"
"15","Vision Score","26","47","44","37","76","23","49","43","34","83"
"16","Wards placed","8","11","13","12","49","13","21","18","13","47"
"17","Wards destroyed","6","13","11","10","10","2","11","9","9","15"
"18","Control Wards Purchased","4","9","4","3","15","4","19","7","4","20"
"19","Detector Wards Placed","4","9","4","3","13","4","19","5","3","18"
"20","VSPM","0.87","1.57","1.47","1.23","2.53","0.77","1.63","1.43","1.13","2.77"
"21","WPM","0.27","0.37","0.43","0.4","1.63","0.43","0.7","0.6","0.43","1.57"
"22","VWPM","0.13","0.3","0.13","0.1","0.5","0.13","0.63","0.23","0.13","0.67"
"23","WCPM","0.2","0.43","0.37","0.33","0.33","0.07","0.37","0.3","0.3","0.5"
"24","VS%","11.3%","20.4%","19.1%","16.1%","33%","9.9%","21.1%","18.5%","14.7%","35.8%"
"25","Total damage to Champion","10283","11938","21627","11996","3814","16824","6833","6513","10702","5251"
"26","Physical Damage","3484","8903","2445","7436","597","12098","3497","486","6735","359"
"27","Magic Damage","6799","1810","18203","3732","2581","3677","2742","4679","3967","4042"
"28","True Damage","0","1225","979","828","636","1049","594","1348","0","850"
"29","DPM","343","398","721","400","127","561","228","217","357","175"
"30","DMG%","17.2%","20%","36.3%","20.1%","6.4%","36.5%","14.8%","14.1%","23.2%","11.4%"
"31","K+A Per Minute","0.37","0.3","0.4","0.27","0.4","0.13","0.1","0.13","0.03","0.07"
"32","KP%","73.3%","60%","80%","53.3%","80%","100%","75%","100%","25%","50%"
"33","Solo kills","","1","1","","","","","","",""
"34","Double kills","0","0","2","1","0","0","0","0","0","0"
"35","Triple kills","0","0","0","0","0","0","0","0","0","0"
"36","Quadra kills","0","0","0","0","0","0","0","0","0","0"
"37","Penta kills","0","0","0","0","0","0","0","0","0","0"
"38","GD@15","-726","-916","566","1971","537","726","916","-566","-1971","-537"
"39","CSD@15","-5","-18","13","16","13","5","18","-13","-16","-13"
"40","XPD@15","-251","-659","58","813","298","251","659","-58","-813","-298"
"41","LVLD@15","-1","-1","0","1","1","1","1","0","-1","-1"
"42","Objectives Stolen","0","0","0","0","0","0","0","0","0","0"
"43","Damage dealt to turrets","5360","3882","2520","12653","58","2529","195","995","0","0"
"44","Damage dealt to buildings","5360","3882","2520","12653","58","2529","195","995","0","0"
"45","Total heal","1731","10175","1404","1978","1063","3841","9165","2225","1194","314"
"46","Total Heals On Teammates","0","0","0","432","0","0","0","0","0","0"
"47","Damage self mitigated","26944","17755","6085","5746","17592","10947","29073","6119","4554","5185"
"48","Total Damage Shielded On Teammates","0","0","0","0","664","0","0","0","0","984"
"49","Time ccing others","22","10","1","0","27","11","16","7","1","12"
"50","Total Time CC Dealt","1373","205","86","68","150","335","549","27","11","133"
"51","Total damage taken","17661","21803","8552","8731","14420","19879","25561","13962","12109","9041"
"52","Total Time Spent Dead","30","0","0","0","89","87","53","80","44","117"
