"","Var.1","Var.2","Var.3","Var.4","Var.5","Var.6","Var.7","Var.8","Var.9","Var.10","Var.11"
"1","Player","Whiteknight","Zanzarah","Dajor","Kobbe","Promisq","Armut","Elyoya","Reeker","UNF0RGIVEN","Kaiser"
"2","Role","TOP","JUNGLE","MID","ADC","SUPPORT","TOP","JUNGLE","MID","ADC","SUPPORT"
"3","Level","15","14","17","14","11","17","15","16","17","12"
"4","Kills","1","2","1","2","0","2","6","2","5","0"
"5","Deaths","2","4","3","1","5","3","2","0","0","1"
"6","Assists","5","4","5","1","2","6","7","12","5","10"
"7","KDA","3","1.5","2","3","0.4","2.7","6.5","Perfect KDA","Perfect KDA","10"
"8","CS","237","192","345","302","32","287","179","237","348","37"
"9","CS in Team's Jungle","12","178","24","19","0","5","156","16","45","0"
"10","CS in Enemy Jungle","","","","","","","","","",""
"11","CSM","7.3","5.9","10.6","9.2","1","8.8","5.5","7.3","10.6","1.1"
"12","Golds","10702","10672","13019","12988","6101","13785","11883","13152","15542","7693"
"13","GPM","327","327","398","397","187","422","364","402","476","235"
"14","GOLD%","20%","20%","24.3%","24.3%","11.4%","22.2%","19.1%","21.2%","25%","12.4%"
"15","Vision Score","28","48","37","28","79","55","52","26","30","90"
"16","Wards placed","16","17","12","11","51","21","9","7","8","55"
"17","Wards destroyed","4","12","9","6","11","8","14","7","11","12"
"18","Control Wards Purchased","6","16","6","2","20","10","9","4","2","16"
"19","Detector Wards Placed","6","16","6","2","18","10","8","3","2","15"
"20","VSPM","0.86","1.47","1.13","0.86","2.42","1.68","1.59","0.8","0.92","2.75"
"21","WPM","0.49","0.52","0.37","0.34","1.56","0.64","0.28","0.21","0.24","1.68"
"22","VWPM","0.18","0.49","0.18","0.06","0.61","0.31","0.28","0.12","0.06","0.49"
"23","WCPM","0.12","0.37","0.28","0.18","0.34","0.24","0.43","0.21","0.34","0.37"
"24","VS%","12.7%","21.8%","16.8%","12.7%","35.9%","21.7%","20.6%","10.3%","11.9%","35.6%"
"25","Total damage to Champion","8407","8446","9121","15459","2609","14291","9153","13212","18529","4855"
"26","Physical Damage","6679","5291","112","14374","240","11397","7938","935","16985","313"
"27","Magic Damage","1662","2527","9009","1085","1609","2894","827","12087","964","3744"
"28","True Damage","66","628","0","0","760","0","388","190","580","798"
"29","DPM","257","258","279","473","80","437","280","404","567","149"
"30","DMG%","19.1%","19.2%","20.7%","35.1%","5.9%","23.8%","15.2%","22%","30.9%","8.1%"
"31","K+A Per Minute","0.18","0.18","0.18","0.09","0.06","0.24","0.4","0.43","0.31","0.31"
"32","KP%","100%","100%","100%","50%","33.3%","53.3%","86.7%","93.3%","66.7%","66.7%"
"33","Solo kills","","","","","","","","","",""
"34","Double kills","0","0","0","0","0","0","2","0","0","0"
"35","Triple kills","0","0","0","0","0","0","0","0","0","0"
"36","Quadra kills","0","0","0","0","0","0","0","0","0","0"
"37","Penta kills","0","0","0","0","0","0","0","0","0","0"
"38","GD@15","398","1046","-120","578","-58","-398","-1046","120","-578","58"
"39","CSD@15","2","0","15","1","-7","-2","0","-15","-1","7"
"40","XPD@15","-56","-171","267","188","-44","56","171","-267","-188","44"
"41","LVLD@15","0","-1","0","0","0","0","1","0","0","0"
"42","Objectives Stolen","0","0","0","0","0","0","0","0","0","0"
"43","Damage dealt to turrets","2610","500","69","5649","113","2963","1407","5737","12827","0"
"44","Damage dealt to buildings","2610","500","69","5649","113","2963","1407","5737","12827","0"
"45","Total heal","2209","11150","2583","1263","833","4231","15265","3201","229","7870"
"46","Total Heals On Teammates","0","0","0","0","0","0","0","126","0","4176"
"47","Damage self mitigated","15397","27322","23678","6446","10726","16573","23444","7661","3747","19335"
"48","Total Damage Shielded On Teammates","330","0","0","0","0","0","0","0","0","1694"
"49","Time ccing others","8","17","16","6","23","19","12","39","9","19"
"50","Total Time CC Dealt","202","245","397","76","121","541","550","176","112","38"
"51","Total damage taken","15334","29516","18970","7753","11852","15229","29030","9890","6770","12248"
"52","Total Time Spent Dead","47","129","105","0","138","90","47","0","0","35"
