"","Var.1","Var.2","Var.3","Var.4","Var.5","Var.6","Var.7","Var.8","Var.9","Var.10","Var.11"
"1","Player","Alphari","Selfmade","Perkz","Carzzy","Labrov","Jenax","Gilius","Sertuss","Jezu","Treatz"
"2","Role","TOP","JUNGLE","MID","ADC","SUPPORT","TOP","JUNGLE","MID","ADC","SUPPORT"
"3","Level","15","16","15","15","12","15","14","15","14","12"
"4","Kills","4","8","5","0","0","4","3","1","2","0"
"5","Deaths","3","2","4","0","1","3","5","4","2","3"
"6","Assists","4","6","6","8","14","4","4","4","3","7"
"7","KDA","2.7","7","2.8","Perfect KDA","14","2.7","1.4","1.3","2.5","2.3"
"8","CS","244","216","241","249","35","199","169","260","271","36"
"9","CS in Team's Jungle","28","188","30","12","0","0","135","15","12","0"
"10","CS in Enemy Jungle","","","","","","","","","",""
"11","CSM","8.8","7.8","8.7","9","1.3","7.2","6.1","9.4","9.8","1.3"
"12","Golds","12284","13611","13159","10948","7560","10643","9471","11181","10895","6141"
"13","GPM","445","493","477","397","274","386","343","405","395","223"
"14","GOLD%","21.3%","23.6%","22.9%","19%","13.1%","22%","19.6%","23.1%","22.5%","12.7%"
"15","Vision Score","35","35","19","35","81","14","41","33","24","69"
"16","Wards placed","11","7","9","13","39","12","8","15","11","40"
"17","Wards destroyed","3","5","4","10","11","1","10","5","7","13"
"18","Control Wards Purchased","3","6","2","5","14","4","17","8","6","12"
"19","Detector Wards Placed","3","5","1","5","12","3","6","5","5","10"
"20","VSPM","1.27","1.27","0.69","1.27","2.94","0.51","1.49","1.2","0.87","2.5"
"21","WPM","0.4","0.25","0.33","0.47","1.41","0.44","0.29","0.54","0.4","1.45"
"22","VWPM","0.11","0.22","0.07","0.18","0.51","0.15","0.62","0.29","0.22","0.44"
"23","WCPM","0.11","0.18","0.15","0.36","0.4","0.04","0.36","0.18","0.25","0.47"
"24","VS%","17.1%","17.1%","9.3%","17.1%","39.5%","7.7%","22.7%","18.2%","13.3%","38.1%"
"25","Total damage to Champion","21079","19512","23150","7801","5485","12065","10060","7518","8170","3792"
"26","Physical Damage","18499","1888","3223","7272","407","1101","8129","210","8170","347"
"27","Magic Damage","2580","11241","18626","529","4472","10940","1287","7308","0","2931"
"28","True Damage","0","6383","1301","0","606","24","644","0","0","514"
"29","DPM","764","707","839","283","199","437","365","273","296","137"
"30","DMG%","27.4%","25.3%","30.1%","10.1%","7.1%","29%","24.2%","18.1%","19.6%","9.1%"
"31","K+A Per Minute","0.29","0.51","0.4","0.29","0.51","0.29","0.25","0.18","0.18","0.25"
"32","KP%","47.1%","82.4%","64.7%","47.1%","82.4%","80%","70%","50%","50%","70%"
"33","Solo kills","","1","","","","","","","",""
"34","Double kills","0","2","1","0","0","0","0","0","0","0"
"35","Triple kills","1","1","0","0","0","0","0","0","0","0"
"36","Quadra kills","0","0","0","0","0","0","0","0","0","0"
"37","Penta kills","0","0","0","0","0","0","0","0","0","0"
"38","GD@15","-241","750","2361","259","91","241","-750","-2361","-259","-91"
"39","CSD@15","12","19","26","7","3","-12","-19","-26","-7","-3"
"40","XPD@15","-193","781","1151","570","-417","193","-781","-1151","-570","417"
"41","LVLD@15","0","1","1","0","-1","0","-1","-1","0","1"
"42","Objectives Stolen","0","0","0","0","0","0","0","0","0","0"
"43","Damage dealt to turrets","12747","4688","1387","4463","325","0","0","0","1757","216"
"44","Damage dealt to buildings","12747","4688","1387","4463","325","0","0","0","1757","216"
"45","Total heal","1270","12654","0","2260","2309","11949","16180","1486","2411","572"
"46","Total Heals On Teammates","0","0","0","464","836","0","0","0","420","248"
"47","Damage self mitigated","10275","20159","7299","2796","10254","25817","18078","7547","4677","11619"
"48","Total Damage Shielded On Teammates","0","0","0","0","1812","0","145","768","127","1130"
"49","Time ccing others","5","9","6","15","23","26","8","11","4","24"
"50","Total Time CC Dealt","100","384","106","97","65","402","148","441","53","166"
"51","Total damage taken","13458","29901","13901","6695","8757","25966","31080","16553","13767","10416"
"52","Total Time Spent Dead","90","60","171","0","38","92","129","144","82","66"
