"","Var.1","Var.2","Var.3","Var.4","Var.5","Var.6","Var.7","Var.8","Var.9","Var.10","Var.11"
"1","Player","Odoamne","Malrang","Larssen","Comp","Trymbi","Alphari","Haru","Perkz","Carzzy","Labrov"
"2","Role","TOP","JUNGLE","MID","ADC","SUPPORT","TOP","JUNGLE","MID","ADC","SUPPORT"
"3","Level","17","14","16","16","13","16","13","15","15","11"
"4","Kills","1","2","2","10","0","0","3","1","1","0"
"5","Deaths","0","1","2","1","1","1","2","4","3","5"
"6","Assists","6","11","9","3","14","1","2","2","3","2"
"7","KDA","Perfect KDA","13","5.5","13","14","1","2.5","0.8","1.3","0.4"
"8","CS","279","141","255","339","42","276","173","252","301","37"
"9","CS in Team's Jungle","40","112","8","43","0","15","138","16","21","0"
"10","CS in Enemy Jungle","","","","","","","","","",""
"11","CSM","9.3","4.7","8.5","11.3","1.4","9.2","5.8","8.4","10.1","1.2"
"12","Golds","12565","9435","12546","17391","7802","10077","9745","10106","12430","5874"
"13","GPM","420","316","420","582","261","337","326","338","416","196"
"14","GOLD%","21%","15.8%","21%","29.1%","13.1%","20.9%","20.2%","21%","25.8%","12.2%"
"15","Vision Score","34","51","23","32","83","27","39","21","42","79"
"16","Wards placed","10","11","6","14","43","15","8","9","23","48"
"17","Wards destroyed","6","15","9","11","19","4","6","5","10","9"
"18","Control Wards Purchased","2","12","2","5","10","5","10","1","3","11"
"19","Detector Wards Placed","2","11","2","5","10","5","6","1","3","10"
"20","VSPM","1.14","1.71","0.77","1.07","2.78","0.9","1.3","0.7","1.4","2.64"
"21","WPM","0.33","0.37","0.2","0.47","1.44","0.5","0.27","0.3","0.77","1.61"
"22","VWPM","0.07","0.4","0.07","0.17","0.33","0.17","0.33","0.03","0.1","0.37"
"23","WCPM","0.2","0.5","0.3","0.37","0.64","0.13","0.2","0.17","0.33","0.3"
"24","VS%","15.2%","22.9%","10.3%","14.3%","37.2%","13%","18.8%","10.1%","20.2%","38%"
"25","Total damage to Champion","10105","8540","22854","19267","2718","17225","7998","17144","24058","4011"
"26","Physical Damage","1521","6410","1968","16888","746","14486","6848","1291","12615","273"
"27","Magic Damage","5351","1472","20886","1893","1429","2739","482","15853","10633","3206"
"28","True Damage","3233","658","0","486","543","0","668","0","810","532"
"29","DPM","338","286","764","644","91","576","267","573","805","134"
"30","DMG%","15.9%","13.5%","36%","30.3%","4.3%","24.5%","11.4%","24.3%","34.2%","5.7%"
"31","K+A Per Minute","0.23","0.43","0.37","0.43","0.47","0.03","0.17","0.1","0.13","0.07"
"32","KP%","46.7%","86.7%","73.3%","86.7%","93.3%","20%","100%","60%","80%","40%"
"33","Solo kills","","","","","","","","","",""
"34","Double kills","0","0","1","3","0","0","1","0","0","0"
"35","Triple kills","0","0","0","1","0","0","0","0","0","0"
"36","Quadra kills","0","0","0","0","0","0","0","0","0","0"
"37","Penta kills","0","0","0","0","0","0","0","0","0","0"
"38","GD@15","-468","290","17","1082","341","468","-290","-17","-1082","-341"
"39","CSD@15","-14","-22","-6","3","-6","14","22","6","-3","6"
"40","XPD@15","-108","-43","161","359","536","108","43","-161","-359","-536"
"41","LVLD@15","0","0","0","0","0","0","0","0","0","0"
"42","Objectives Stolen","0","0","0","0","0","0","0","0","0","0"
"43","Damage dealt to turrets","6490","210","3381","10623","1078","236","0","0","4205","0"
"44","Damage dealt to buildings","6490","210","3381","10623","1078","236","0","0","4205","0"
"45","Total heal","4373","7610","8035","2455","10509","2352","10026","747","301","956"
"46","Total Heals On Teammates","0","0","0","0","5675","0","0","0","0","206"
"47","Damage self mitigated","20616","36457","20466","13515","14325","21971","16532","14236","11384","15886"
"48","Total Damage Shielded On Teammates","0","0","0","0","4039","0","0","0","0","2902"
"49","Time ccing others","2","22","30","15","9","33","11","2","11","9"
"50","Total Time CC Dealt","30","523","477","408","48","464","182","80","195","78"
"51","Total damage taken","25455","20180","25261","16012","10058","19637","21566","21624","13019","11953"
"52","Total Time Spent Dead","0","30","38","32","27","49","43","119","62","145"
