"","Var.1","Var.2","Var.3","Var.4","Var.5","Var.6","Var.7","Var.8","Var.9","Var.10","Var.11"
"1","Player","Odoamne","Malrang","Larssen","Comp","Trymbi","Armut","Elyoya","Reeker","UNF0RGIVEN","Kaiser"
"2","Role","TOP","JUNGLE","MID","ADC","SUPPORT","TOP","JUNGLE","MID","ADC","SUPPORT"
"3","Level","","","","","","","","","",""
"4","Kills","2","4","7","4","1","2","3","1","3","1"
"5","Deaths","0","1","2","4","3","4","5","3","2","4"
"6","Assists","7","8","8","11","13","1","4","6","4","7"
"7","KDA","Perfect KDA","12","7.5","3.8","4.7","0.8","1.4","2.3","3.5","2"
"8","CS","285","137","274","246","24","255","162","247","237","36"
"9","CS in Team's Jungle","13","70","24","12","0","4","105","13","9","0"
"10","CS in Enemy Jungle","0","5","1","4","0","0","17","0","0","0"
"11","CSM","10.1","4.8","9.7","8.7","0.8","9","5.7","8.7","8.4","1.3"
"12","Golds","13182","10293","13487","14003","7017","11217","8972","10137","10759","6291"
"13","GPM","466","364","477","495","248","397","317","358","380","222"
"14","GOLD%","22.7%","17.8%","23.3%","24.2%","12.1%","23.7%","18.9%","21.4%","22.7%","13.3%"
"15","Vision Score","32","47","27","41","62","34","35","24","25","70"
"16","Wards placed","14","16","11","18","35","13","12","8","12","40"
"17","Wards destroyed","4","13","6","7","5","5","11","6","3","11"
"18","Control Wards Purchased","5","11","2","7","16","5","10","6","6","14"
"19","Detector Wards Placed","","","","","","","","","",""
"20","VSPM","1.13","1.66","0.95","1.45","2.19","1.2","1.24","0.85","0.88","2.47"
"21","WPM","0.49","0.57","0.39","0.64","1.24","0.46","0.42","0.28","0.42","1.41"
"22","VWPM","0.18","0.39","0.07","0.25","0.57","0.18","0.35","0.21","0.21","0.49"
"23","WCPM","0.14","0.46","0.21","0.25","0.18","0.18","0.39","0.21","0.11","0.39"
"24","VS%","15.3%","22.5%","12.9%","19.6%","29.7%","18.1%","18.6%","12.8%","13.3%","37.2%"
"25","Total damage to Champion","9571","9618","15355","11836","6398","11198","5247","7409","10120","3650"
"26","Physical Damage","8719","6424","694","10543","1423","9229","4161","652","8343","1014"
"27","Magic Damage","720","2505","14661","1043","4238","1969","738","6757","1621","1786"
"28","True Damage","132","689","0","250","737","0","348","0","156","850"
"29","DPM","338","340","543","418","226","396","186","262","358","129"
"30","DMG%","18.1%","18.2%","29.1%","22.4%","12.1%","29.8%","13.9%","19.7%","26.9%","9.7%"
"31","K+A Per Minute","0.32","0.42","0.53","0.53","0.49","0.11","0.25","0.25","0.25","0.28"
"32","KP%","50%","66.7%","83.3%","83.3%","77.8%","30%","70%","70%","70%","80%"
"33","Solo kills","","","","","","1","","","",""
"34","Double kills","1","1","1","1","0","0","0","0","0","0"
"35","Triple kills","0","0","0","0","0","0","0","0","0","0"
"36","Quadra kills","0","0","0","0","0","0","0","0","0","0"
"37","Penta kills","0","0","0","0","0","0","0","0","0","0"
"38","GD@15","413","110","687","1102","-292","-413","-110","-687","-1102","292"
"39","CSD@15","20","-21","16","-1","-10","-20","21","-16","1","10"
"40","XPD@15","353","-232","841","-113","208","-353","232","-841","113","-208"
"41","LVLD@15","0","-1","1","0","0","0","1","-1","0","0"
"42","Objectives Stolen","","","","","","","","","",""
"43","Damage dealt to turrets","5932","371","6789","11643","185","6047","0","0","574","0"
"44","Damage dealt to buildings","","","","","","","","","",""
"45","Total heal","3164","10656","2260","853","2908","911","4535","1190","1568","844"
"46","Total Heals On Teammates","","","","","","","","","",""
"47","Damage self mitigated","9324","16179","5457","7966","15808","10081","19831","8105","2728","16015"
"48","Total Damage Shielded On Teammates","","","","","","","","","",""
"49","Time ccing others","18","17","18","11","43","3","7","16","12","32"
"50","Total Time CC Dealt","","","","","","","","","",""
"51","Total damage taken","11249","17719","7876","8188","11490","13822","22043","14662","6621","14254"
"52","Total Time Spent Dead","","","","","","","","","",""
