"","Var.1","Var.2","Var.3","Var.4","Var.5","Var.6","Var.7","Var.8","Var.9","Var.10","Var.11"
"1","Player","Armut","Elyoya","Reeker","UNF0RGIVEN","Kaiser","Brokenblade","Jankos","Caps","Flakked","Targamas"
"2","Role","TOP","JUNGLE","MID","ADC","SUPPORT","TOP","JUNGLE","MID","ADC","SUPPORT"
"3","Level","14","14","16","15","12","15","12","14","13","10"
"4","Kills","0","3","2","7","0","2","0","1","1","0"
"5","Deaths","2","1","1","0","0","2","2","2","2","4"
"6","Assists","9","9","4","3","12","1","3","3","1","3"
"7","KDA","4.5","12","6","Perfect KDA","Perfect KDA","1.5","1.5","2","1","0.8"
"8","CS","184","159","256","303","32","244","145","218","258","25"
"9","CS in Team's Jungle","1","143","32","28","0","12","114","15","9","0"
"10","CS in Enemy Jungle","","","","","","","","","",""
"11","CSM","6.9","6","9.6","11.3","1.2","9.1","5.4","8.2","9.7","0.9"
"12","Golds","9079","10253","12296","15923","6795","9986","7295","8905","10660","5103"
"13","GPM","340","384","461","596","254","374","273","334","399","191"
"14","GOLD%","16.7%","18.9%","22.6%","29.3%","12.5%","23.8%","17.4%","21.2%","25.4%","12.2%"
"15","Vision Score","24","29","26","30","73","20","41","22","26","45"
"16","Wards placed","13","7","14","10","40","11","8","6","13","30"
"17","Wards destroyed","2","6","3","10","7","3","15","6","1","2"
"18","Control Wards Purchased","5","7","8","2","13","6","6","4","5","11"
"19","Detector Wards Placed","3","6","7","2","13","4","6","4","4","8"
"20","VSPM","0.9","1.09","0.97","1.12","2.73","0.75","1.54","0.82","0.97","1.69"
"21","WPM","0.49","0.26","0.52","0.37","1.5","0.41","0.3","0.22","0.49","1.12"
"22","VWPM","0.19","0.26","0.3","0.07","0.49","0.22","0.22","0.15","0.19","0.41"
"23","WCPM","0.07","0.22","0.11","0.37","0.26","0.11","0.56","0.22","0.04","0.07"
"24","VS%","13.2%","15.9%","14.3%","16.5%","40.1%","13%","26.6%","14.3%","16.9%","29.2%"
"25","Total damage to Champion","5552","9206","12671","14881","1490","8839","4458","5845","8830","3806"
"26","Physical Damage","1916","8089","1757","13113","368","7261","3432","253","7880","302"
"27","Magic Damage","3096","678","10462","55","772","1071","716","5592","726","2850"
"28","True Damage","540","439","452","1713","350","507","310","0","224","654"
"29","DPM","208","345","475","557","56","331","167","219","331","143"
"30","DMG%","12.7%","21%","28.9%","34%","3.4%","27.8%","14%","18.4%","27.8%","12%"
"31","K+A Per Minute","0.34","0.45","0.22","0.37","0.45","0.11","0.11","0.15","0.07","0.11"
"32","KP%","75%","100%","50%","83.3%","100%","75%","75%","100%","50%","75%"
"33","Solo kills","","","","","","","","","",""
"34","Double kills","0","0","0","3","0","0","0","0","0","0"
"35","Triple kills","0","0","0","0","0","0","0","0","0","0"
"36","Quadra kills","0","0","0","0","0","0","0","0","0","0"
"37","Penta kills","0","0","0","0","0","0","0","0","0","0"
"38","GD@15","-911","468","511","903","1","911","-468","-511","-903","-1"
"39","CSD@15","-23","1","-6","20","1","23","-1","6","-20","-1"
"40","XPD@15","-759","-199","-447","324","-313","759","199","447","-324","313"
"41","LVLD@15","-1","0","-1","0","0","1","0","1","0","0"
"42","Objectives Stolen","0","0","0","0","0","0","0","0","0","0"
"43","Damage dealt to turrets","1051","3343","4278","14825","856","3247","0","1724","2458","0"
"44","Damage dealt to buildings","1051","3343","4278","14825","856","3247","0","1724","2458","0"
"45","Total heal","949","8929","600","790","358","222","11028","1446","1674","5410"
"46","Total Heals On Teammates","0","0","0","270","0","0","0","0","318","5277"
"47","Damage self mitigated","15501","19324","4401","3321","4152","7058","12904","9601","5112","3459"
"48","Total Damage Shielded On Teammates","0","0","0","0","1441","0","0","0","0","645"
"49","Time ccing others","17","3","0","3","9","0","4","9","12","13"
"50","Total Time CC Dealt","1122","374","12","61","57","8","146","150","150","27"
"51","Total damage taken","13723","21573","8919","6404","4669","8329","23930","17561","8374","6584"
"52","Total Time Spent Dead","69","42","32","0","0","84","40","84","43","77"
