"","Var.1","Var.2","Var.3","Var.4","Var.5","Var.6","Var.7","Var.8","Var.9","Var.10","Var.11"
"1","Player","Wunder","Razork","Humanoid","Upset","Hylissang","Adam","Cinkrof","Nuclearint","xmatty","Limit"
"2","Role","TOP","JUNGLE","MID","ADC","SUPPORT","TOP","JUNGLE","MID","ADC","SUPPORT"
"3","Level","17","16","17","16","14","17","17","17","15","13"
"4","Kills","5","3","2","3","2","3","5","3","0","1"
"5","Deaths","4","2","5","1","0","5","2","2","5","1"
"6","Assists","5","6","11","7","12","4","2","4","3","8"
"7","KDA","2.5","4.5","2.6","10","Perfect KDA","1.4","3.5","3.5","0.6","9"
"8","CS","301","198","263","317","20","277","248","267","261","15"
"9","CS in Team's Jungle","42","164","32","36","0","10","192","8","16","0"
"10","CS in Enemy Jungle","","","","","","","","","",""
"11","CSM","8.7","5.7","7.6","9.1","0.6","8","7.1","7.7","7.5","0.4"
"12","Golds","14842","11882","13982","14522","8862","13850","14068","12556","11700","7668"
"13","GPM","427","342","402","418","255","399","405","361","337","221"
"14","GOLD%","23.2%","18.5%","21.8%","22.7%","13.8%","23.1%","23.5%","21%","19.6%","12.8%"
"15","Vision Score","32","59","28","30","118","31","55","38","36","104"
"16","Wards placed","16","11","10","16","78","14","12","11","15","76"
"17","Wards destroyed","6","16","4","10","13","6","16","7","6","14"
"18","Control Wards Purchased","6","10","1","4","17","5","18","6","6","23"
"19","Detector Wards Placed","6","10","1","4","15","5","11","6","5","20"
"20","VSPM","0.92","1.7","0.81","0.86","3.4","0.89","1.58","1.09","1.04","2.99"
"21","WPM","0.46","0.32","0.29","0.46","2.24","0.4","0.35","0.32","0.43","2.19"
"22","VWPM","0.17","0.29","0.03","0.12","0.49","0.14","0.52","0.17","0.17","0.66"
"23","WCPM","0.17","0.46","0.12","0.29","0.37","0.17","0.46","0.2","0.17","0.4"
"24","VS%","12%","22.1%","10.5%","11.2%","44.2%","11.7%","20.8%","14.4%","13.6%","39.4%"
"25","Total damage to Champion","23142","8472","18801","21588","6048","14364","13097","16889","13128","6670"
"26","Physical Damage","2616","7312","1718","18617","195","12148","10222","1222","10130","173"
"27","Magic Damage","14391","1002","16883","2228","5222","685","1589","15417","2824","5642"
"28","True Damage","6135","158","200","743","631","1531","1286","250","174","855"
"29","DPM","666","244","541","621","174","413","377","486","378","192"
"30","DMG%","29.6%","10.9%","24.1%","27.7%","7.7%","22.4%","20.4%","26.3%","20.5%","10.4%"
"31","K+A Per Minute","0.29","0.26","0.37","0.29","0.4","0.2","0.2","0.2","0.09","0.26"
"32","KP%","66.7%","60%","86.7%","66.7%","93.3%","58.3%","58.3%","58.3%","25%","75%"
"33","Solo kills","","","","","","","1","","",""
"34","Double kills","2","1","0","0","0","0","0","0","0","0"
"35","Triple kills","0","0","0","0","0","0","0","0","0","0"
"36","Quadra kills","0","0","0","0","0","0","0","0","0","0"
"37","Penta kills","0","0","0","0","0","0","0","0","0","0"
"38","GD@15","-1117","-2052","401","453","644","1117","2052","-401","-453","-644"
"39","CSD@15","10","-30","-12","30","10","-10","30","12","-30","-10"
"40","XPD@15","108","-2178","-469","163","588","-108","2178","469","-163","-588"
"41","LVLD@15","0","-2","-1","1","1","0","2","1","-1","-1"
"42","Objectives Stolen","0","0","0","0","0","0","0","0","0","0"
"43","Damage dealt to turrets","9043","2254","3375","6546","2210","4565","365","862","1378","0"
"44","Damage dealt to buildings","9043","2254","3375","6546","2210","4565","365","862","1378","0"
"45","Total heal","4797","17357","2578","3260","5878","4550","19767","4918","1584","7255"
"46","Total Heals On Teammates","0","0","0","825","2858","0","0","0","0","4836"
"47","Damage self mitigated","21209","22171","10681","5108","17561","39440","29865","12562","9857","3282"
"48","Total Damage Shielded On Teammates","0","0","0","0","3944","0","0","0","0","0"
"49","Time ccing others","6","10","42","22","18","20","14","9","1","26"
"50","Total Time CC Dealt","83","470","205","211","65","106","241","43","64","182"
"51","Total damage taken","24855","30940","20991","11285","11696","30195","34520","20724","18600","7185"
"52","Total Time Spent Dead","142","63","200","51","0","178","41","49","184","35"
