"","Var.1","Var.2","Var.3","Var.4","Var.5","Var.6","Var.7","Var.8","Var.9","Var.10","Var.11"
"1","Player","Finn","Markoon","Nukeduck","Patrik","Mikyx","Wunder","Razork","Humanoid","Upset","Hylissang"
"2","Role","TOP","JUNGLE","MID","ADC","SUPPORT","TOP","JUNGLE","MID","ADC","SUPPORT"
"3","Level","16","14","16","14","12","15","12","15","14","10"
"4","Kills","3","3","6","8","0","1","4","0","1","0"
"5","Deaths","2","1","0","0","3","5","6","1","1","7"
"6","Assists","14","12","9","6","14","2","0","3","1","2"
"7","KDA","8.5","15","Perfect KDA","Perfect KDA","4.7","0.6","0.7","3","2","0.3"
"8","CS","237","164","235","242","35","248","137","261","294","41"
"9","CS in Team's Jungle","7","147","8","23","0","23","103","16","38","4"
"10","CS in Enemy Jungle","","","","","","","","","",""
"11","CSM","8.1","5.6","8.1","8.3","1.2","8.5","4.7","8.9","10.1","1.4"
"12","Golds","13656","11735","12924","13591","7308","10655","8373","10784","12590","5987"
"13","GPM","468","402","443","466","251","365","287","370","432","205"
"14","GOLD%","23.1%","19.8%","21.8%","23%","12.3%","22%","17.3%","22.3%","26%","12.4%"
"15","Vision Score","33","31","30","30","83","26","46","41","23","71"
"16","Wards placed","17","7","14","10","56","12","7","19","10","35"
"17","Wards destroyed","5","11","6","5","10","4","17","12","4","10"
"18","Control Wards Purchased","9","8","3","4","19","3","7","2","2","11"
"19","Detector Wards Placed","8","6","3","3","17","3","5","2","2","9"
"20","VSPM","1.13","1.06","1.03","1.03","2.85","0.89","1.58","1.41","0.79","2.43"
"21","WPM","0.58","0.24","0.48","0.34","1.92","0.41","0.24","0.65","0.34","1.2"
"22","VWPM","0.31","0.27","0.1","0.14","0.65","0.1","0.24","0.07","0.07","0.38"
"23","WCPM","0.17","0.38","0.21","0.17","0.34","0.14","0.58","0.41","0.14","0.34"
"24","VS%","15.9%","15%","14.5%","14.5%","40.1%","12.6%","22.2%","19.8%","11.1%","34.3%"
"25","Total damage to Champion","20671","12920","15918","18382","4679","13055","10114","16413","9677","4159"
"26","Physical Damage","14011","9917","1344","16988","785","1174","8957","1230","9399","897"
"27","Magic Damage","4606","2258","14574","1282","3462","7212","524","14669","0","2635"
"28","True Damage","2054","745","0","112","432","4669","633","514","278","627"
"29","DPM","709","443","546","630","160","448","347","563","332","143"
"30","DMG%","28.5%","17.8%","21.9%","25.3%","6.4%","24.4%","18.9%","30.7%","18.1%","7.8%"
"31","K+A Per Minute","0.58","0.51","0.51","0.48","0.48","0.1","0.14","0.1","0.07","0.07"
"32","KP%","85%","75%","75%","70%","70%","50%","66.7%","50%","33.3%","33.3%"
"33","Solo kills","","","","","","","1","","",""
"34","Double kills","0","1","0","3","0","0","0","0","0","0"
"35","Triple kills","0","0","0","0","0","0","0","0","0","0"
"36","Quadra kills","0","0","0","0","0","0","0","0","0","0"
"37","Penta kills","0","0","0","0","0","0","0","0","0","0"
"38","GD@15","1096","228","394","708","44","-1096","-228","-394","-708","-44"
"39","CSD@15","-3","16","-33","-3","-3","3","-16","33","3","3"
"40","XPD@15","598","545","-240","-118","-432","-598","-545","240","118","432"
"41","LVLD@15","1","1","-1","0","0","-1","-1","1","0","0"
"42","Objectives Stolen","0","0","0","0","0","0","0","0","0","0"
"43","Damage dealt to turrets","8313","4405","3630","4137","322","3779","0","1630","1404","0"
"44","Damage dealt to buildings","8313","4405","3630","4137","322","3779","0","1630","1404","0"
"45","Total heal","4260","12376","3068","993","2291","2922","9808","1348","95","467"
"46","Total Heals On Teammates","0","0","0","0","681","0","0","0","0","0"
"47","Damage self mitigated","9939","28073","8404","9110","14260","19875","25729","11133","8161","18251"
"48","Total Damage Shielded On Teammates","0","0","0","0","736","0","0","0","0","0"
"49","Time ccing others","11","7","37","15","24","6","19","22","7","48"
"50","Total Time CC Dealt","245","140","264","312","120","62","688","59","120","326"
"51","Total damage taken","16847","25547","13672","13293","14264","26402","29399","14430","12555","15613"
"52","Total Time Spent Dead","55","16","0","0","46","119","138","39","42","136"
