"","Var.1","Var.2","Var.3","Var.4","Var.5","Var.6","Var.7","Var.8","Var.9","Var.10","Var.11"
"1","Player","Odoamne","Malrang","Larssen","Comp","Trymbi","Wunder","Razork","Humanoid","Upset","Hylissang"
"2","Role","TOP","JUNGLE","MID","ADC","SUPPORT","TOP","JUNGLE","MID","ADC","SUPPORT"
"3","Level","16","13","17","16","12","18","15","18","17","14"
"4","Kills","0","1","4","2","1","7","2","2","9","1"
"5","Deaths","2","5","4","5","5","0","2","3","1","3"
"6","Assists","3","6","1","2","3","6","10","13","7","14"
"7","KDA","1.5","1.4","1.3","0.8","0.8","Perfect KDA","6","5","16","5"
"8","CS","251","140","333","367","18","337","151","313","328","47"
"9","CS in Team's Jungle","6","117","40","40","0","32","125","39","65","0"
"10","CS in Enemy Jungle","","","","","","","","","",""
"11","CSM","7.4","4.1","9.8","10.8","0.5","9.9","4.4","9.2","9.6","1.4"
"12","Golds","10630","9463","15377","14993","7076","16885","10742","15052","19405","8695"
"13","GPM","312","278","452","441","208","496","316","442","570","255"
"14","GOLD%","18.5%","16.4%","26.7%","26.1%","12.3%","23.9%","15.2%","21.3%","27.4%","12.3%"
"15","Vision Score","18","94","23","35","103","29","58","17","45","86"
"16","Wards placed","10","39","13","10","53","15","12","11","14","55"
"17","Wards destroyed","3","18","4","13","15","3","17","3","12","15"
"18","Control Wards Purchased","1","15","2","3","14","4","10","1","2","16"
"19","Detector Wards Placed","1","13","2","2","12","4","10","0","2","16"
"20","VSPM","0.53","2.76","0.68","1.03","3.03","0.85","1.7","0.5","1.32","2.53"
"21","WPM","0.29","1.15","0.38","0.29","1.56","0.44","0.35","0.32","0.41","1.62"
"22","VWPM","0.03","0.44","0.06","0.09","0.41","0.12","0.29","0.03","0.06","0.47"
"23","WCPM","0.09","0.53","0.12","0.38","0.44","0.09","0.5","0.09","0.35","0.44"
"24","VS%","6.6%","34.4%","8.4%","12.8%","37.7%","12.3%","24.7%","7.2%","19.1%","36.6%"
"25","Total damage to Champion","12476","10365","20174","17098","6050","26037","13464","21504","25949","4519"
"26","Physical Damage","4411","6689","144","14810","845","2558","7264","975","25210","902"
"27","Magic Damage","8065","1506","17129","699","3850","15737","5120","20184","235","3401"
"28","True Damage","0","2170","2901","1589","1355","7742","1080","345","504","216"
"29","DPM","367","305","593","502","178","765","396","632","762","133"
"30","DMG%","18.9%","15.7%","30.5%","25.8%","9.1%","28.5%","14.7%","23.5%","28.4%","4.9%"
"31","K+A Per Minute","0.09","0.21","0.15","0.12","0.12","0.38","0.35","0.44","0.47","0.44"
"32","KP%","37.5%","87.5%","62.5%","50%","50%","61.9%","57.1%","71.4%","76.2%","71.4%"
"33","Solo kills","","","","","","","1","1","",""
"34","Double kills","0","0","0","0","0","1","0","0","0","0"
"35","Triple kills","0","0","0","0","0","0","0","0","0","0"
"36","Quadra kills","0","0","0","0","0","0","0","0","0","0"
"37","Penta kills","0","0","0","0","0","0","0","0","0","0"
"38","GD@15","-514","473","1542","-1181","-135","514","-473","-1542","1181","135"
"39","CSD@15","-25","4","10","-1","-27","25","-4","-10","1","27"
"40","XPD@15","-475","530","1165","-977","-764","475","-530","-1165","977","764"
"41","LVLD@15","0","1","1","-1","-1","0","-1","-1","1","1"
"42","Objectives Stolen","0","0","0","0","0","0","0","0","0","0"
"43","Damage dealt to turrets","0","0","4637","3114","192","8417","2002","8877","6236","293"
"44","Damage dealt to buildings","0","0","4637","3114","192","8417","2002","8877","6236","293"
"45","Total heal","3356","4128","45","828","0","5956","12233","2639","1624","2339"
"46","Total Heals On Teammates","0","0","0","0","0","0","0","0","713","514"
"47","Damage self mitigated","36870","29288","13080","14362","11731","22554","43330","11811","12053","8867"
"48","Total Damage Shielded On Teammates","0","0","0","0","1950","0","0","812","0","2167"
"49","Time ccing others","33","32","8","10","31","8","25","26","7","40"
"50","Total Time CC Dealt","728","737","274","541","228","111","461","407","81","95"
"51","Total damage taken","32247","23335","22986","20887","13783","24772","30907","12897","17702","15661"
"52","Total Time Spent Dead","42","151","142","116","157","0","58","89","36","72"
