"","Var.1","Var.2","Var.3","Var.4","Var.5","Var.6","Var.7","Var.8","Var.9","Var.10","Var.11"
"1","Player","Wunder","Razork","Humanoid","Upset","Hylissang","Armut","Elyoya","Reeker","UNF0RGIVEN","Kaiser"
"2","Role","TOP","JUNGLE","MID","ADC","SUPPORT","TOP","JUNGLE","MID","ADC","SUPPORT"
"3","Level","","","","","","","","","",""
"4","Kills","3","0","2","1","7","1","2","3","1","0"
"5","Deaths","3","1","1","0","2","1","4","3","2","3"
"6","Assists","2","6","9","7","4","2","3","3","2","7"
"7","KDA","1.7","6","11","Perfect KDA","5.5","3","1.3","2","1.5","2.3"
"8","CS","289","172","362","307","51","285","159","272","300","44"
"9","CS in Team's Jungle","1","91","43","26","0","18","87","19","25","0"
"10","CS in Enemy Jungle","0","12","2","6","0","5","13","0","0","0"
"11","CSM","8.9","5.3","11.1","9.4","1.6","8.8","4.9","8.4","9.2","1.4"
"12","Golds","14073","9566","15131","14576","10478","12908","9682","12370","12646","6750"
"13","GPM","433","294","465","448","322","397","298","380","389","207"
"14","GOLD%","22%","15%","23.7%","22.8%","16.4%","23.7%","17.8%","22.8%","23.3%","12.4%"
"15","Vision Score","35","54","33","49","128","39","37","23","20","100"
"16","Wards placed","15","7","10","20","69","19","12","12","9","62"
"17","Wards destroyed","7","18","4","5","23","7","11","6","6","22"
"18","Control Wards Purchased","5","7","2","7","8","9","12","8","2","16"
"19","Detector Wards Placed","","","","","","","","","",""
"20","VSPM","1.08","1.66","1.01","1.51","3.93","1.2","1.14","0.71","0.61","3.07"
"21","WPM","0.46","0.22","0.31","0.61","2.12","0.58","0.37","0.37","0.28","1.91"
"22","VWPM","0.15","0.22","0.06","0.22","0.25","0.28","0.37","0.25","0.06","0.49"
"23","WCPM","0.22","0.55","0.12","0.15","0.71","0.22","0.34","0.18","0.18","0.68"
"24","VS%","11.7%","18.1%","11%","16.4%","42.8%","17.8%","16.9%","10.5%","9.1%","45.7%"
"25","Total damage to Champion","14492","6947","16073","11556","6880","7478","7633","9462","10136","3542"
"26","Physical Damage","1636","5891","170","10081","4964","7478","4684","357","8943","468"
"27","Magic Damage","8424","624","15626","905","0","0","2337","9105","751","2264"
"28","True Damage","4432","432","277","570","1916","0","612","0","442","810"
"29","DPM","445","214","494","355","211","230","235","291","312","109"
"30","DMG%","25.9%","12.4%","28.7%","20.7%","12.3%","19.5%","20%","24.7%","26.5%","9.3%"
"31","K+A Per Minute","0.15","0.18","0.34","0.25","0.34","0.09","0.15","0.18","0.09","0.22"
"32","KP%","38.5%","46.2%","84.6%","61.5%","84.6%","42.9%","71.4%","85.7%","42.9%","100%"
"33","Solo kills","","","","","1","","","","",""
"34","Double kills","0","0","0","0","1","0","0","0","0","0"
"35","Triple kills","0","0","0","0","1","0","0","0","0","0"
"36","Quadra kills","0","0","0","0","0","0","0","0","0","0"
"37","Penta kills","0","0","0","0","0","0","0","0","0","0"
"38","GD@15","131","-922","134","-172","-27","-131","922","-134","172","27"
"39","CSD@15","16","2","29","1","0","-16","-2","-29","-1","0"
"40","XPD@15","24","-208","1190","-655","706","-24","208","-1190","655","-706"
"41","LVLD@15","0","0","1","0","0","0","0","-1","0","0"
"42","Objectives Stolen","","","","","","","","","",""
"43","Damage dealt to turrets","6167","1280","4777","6139","1600","7283","69","146","2829","0"
"44","Damage dealt to buildings","","","","","","","","","",""
"45","Total heal","3198","11882","820","401","3542","2949","11603","2664","990","1540"
"46","Total Heals On Teammates","","","","","","","","","",""
"47","Damage self mitigated","18732","10020","10690","3719","6273","12881","26360","16675","7701","9862"
"48","Total Damage Shielded On Teammates","","","","","","","","","",""
"49","Time ccing others","4","9","10","9","14","10","12","17","4","11"
"50","Total Time CC Dealt","","","","","","","","","",""
"51","Total damage taken","19105","20616","7971","7343","12418","16102","27571","18499","7226","9693"
"52","Total Time Spent Dead","","","","","","","","","",""
