"","Var.1","Var.2","Var.3","Var.4","Var.5","Var.6","Var.7","Var.8","Var.9","Var.10","Var.11"
"1","Player","Finn","Markoon","Nukeduck","Patrik","Mikyx","Agresivoo","Cinkrof","Nuclearint","xmatty","Erdote"
"2","Role","TOP","JUNGLE","MID","ADC","SUPPORT","TOP","JUNGLE","MID","ADC","SUPPORT"
"3","Level","15","14","15","13","11","13","11","13","12","9"
"4","Kills","2","9","3","2","0","0","0","1","1","0"
"5","Deaths","0","0","0","0","2","3","5","4","3","1"
"6","Assists","3","3","8","4","11","0","2","0","0","2"
"7","KDA","Perfect KDA","Perfect KDA","Perfect KDA","Perfect KDA","5.5","0","0.4","0.3","0.3","2"
"8","CS","242","164","225","208","16","200","116","208","213","20"
"9","CS in Team's Jungle","26","143","12","0","0","0","89","4","10","0"
"10","CS in Enemy Jungle","","","","","","","","","",""
"11","CSM","10","6.8","9.3","8.6","0.7","8.3","4.8","8.6","8.8","0.8"
"12","Golds","10482","12189","11310","10346","6641","7567","5981","8297","8284","4789"
"13","GPM","435","506","469","429","276","314","248","344","344","199"
"14","GOLD%","20.6%","23.9%","22.2%","20.3%","13%","21.7%","17.1%","23.8%","23.7%","13.7%"
"15","Vision Score","38","32","19","13","82","20","34","17","27","51"
"16","Wards placed","15","8","11","11","49","7","8","5","11","35"
"17","Wards destroyed","3","9","3","0","15","6","12","5","10","13"
"18","Control Wards Purchased","7","7","3","3","9","3","10","5","4","12"
"19","Detector Wards Placed","7","7","3","3","9","2","6","2","3","11"
"20","VSPM","1.58","1.33","0.79","0.54","3.4","0.83","1.41","0.71","1.12","2.12"
"21","WPM","0.62","0.33","0.46","0.46","2.03","0.29","0.33","0.21","0.46","1.45"
"22","VWPM","0.29","0.29","0.12","0.12","0.37","0.12","0.41","0.21","0.17","0.5"
"23","WCPM","0.12","0.37","0.12","0","0.62","0.25","0.5","0.21","0.41","0.54"
"24","VS%","20.7%","17.4%","10.3%","7.1%","44.6%","13.4%","22.8%","11.4%","18.1%","34.2%"
"25","Total damage to Champion","5419","13327","14150","11707","3028","9761","3313","7517","5496","5374"
"26","Physical Damage","3538","10016","982","7481","207","5393","2544","458","3596","336"
"27","Magic Damage","1881","2155","13068","3771","2473","4116","553","6837","1828","4738"
"28","True Damage","0","1156","100","455","348","252","216","222","72","300"
"29","DPM","225","553","587","486","126","405","137","312","228","223"
"30","DMG%","11.4%","28%","29.7%","24.6%","6.4%","31%","10.5%","23.9%","17.5%","17.1%"
"31","K+A Per Minute","0.21","0.5","0.46","0.25","0.46","0","0.08","0.04","0.04","0.08"
"32","KP%","31.3%","75%","68.8%","37.5%","68.8%","0%","100%","50%","50%","100%"
"33","Solo kills","","1","","","","","","","",""
"34","Double kills","0","1","1","0","0","0","0","0","0","0"
"35","Triple kills","0","0","0","0","0","0","0","0","0","0"
"36","Quadra kills","0","0","0","0","0","0","0","0","0","0"
"37","Penta kills","0","0","0","0","0","0","0","0","0","0"
"38","GD@15","614","2259","938","245","147","-614","-2259","-938","-245","-147"
"39","CSD@15","7","6","15","-7","4","-7","-6","-15","7","-4"
"40","XPD@15","653","1105","1224","-231","169","-653","-1105","-1224","231","-169"
"41","LVLD@15","1","1","1","0","0","-1","-1","-1","0","0"
"42","Objectives Stolen","0","0","0","0","0","0","0","0","0","0"
"43","Damage dealt to turrets","3932","6677","3414","4109","409","0","0","0","421","549"
"44","Damage dealt to buildings","3932","6677","3414","4109","409","0","0","0","421","549"
"45","Total heal","583","8963","849","589","4911","1171","6051","942","1422","1234"
"46","Total Heals On Teammates","0","0","0","0","3122","0","93","0","411","0"
"47","Damage self mitigated","16128","18791","3552","4666","2819","14242","9492","4193","4168","2765"
"48","Total Damage Shielded On Teammates","0","0","0","0","0","0","0","0","0","1483"
"49","Time ccing others","21","9","18","0","15","20","7","10","0","7"
"50","Total Time CC Dealt","427","186","162","15","81","452","117","287","21","123"
"51","Total damage taken","10311","20671","7236","9761","6717","17318","18229","10788","9982","6363"
"52","Total Time Spent Dead","0","0","0","0","48","68","129","98","69","0"
