"","Var.1","Var.2","Var.3","Var.4","Var.5","Var.6","Var.7","Var.8","Var.9","Var.10","Var.11"
"1","Player","Alphari","Haru","Perkz","Carzzy","Labrov","Agresivoo","Cinkrof","Nuclearint","xmatty","Limit"
"2","Role","TOP","JUNGLE","MID","ADC","SUPPORT","TOP","JUNGLE","MID","ADC","SUPPORT"
"3","Level","14","13","14","14","10","13","11","13","12","9"
"4","Kills","3","6","4","7","1","0","0","0","2","0"
"5","Deaths","0","0","0","1","1","2","6","4","3","6"
"6","Assists","10","13","12","8","16","1","1","1","0","1"
"7","KDA","Perfect KDA","Perfect KDA","Perfect KDA","15","17","0.5","0.2","0.3","0.7","0.2"
"8","CS","214","129","207","240","25","192","122","212","226","34"
"9","CS in Team's Jungle","4","115","22","21","0","4","106","1","8","0"
"10","CS in Enemy Jungle","","","","","","","","","",""
"11","CSM","8.8","5.3","8.5","9.8","1","7.9","5","8.7","9.3","1.4"
"12","Golds","10939","10434","10569","11716","6452","7484","6338","7846","9467","4883"
"13","GPM","448","427","433","480","264","307","260","321","388","200"
"14","GOLD%","21.8%","20.8%","21.1%","23.4%","12.9%","20.8%","17.6%","21.8%","26.3%","13.6%"
"15","Vision Score","26","28","28","32","54","15","37","21","24","55"
"16","Wards placed","10","6","10","10","39","8","3","5","8","31"
"17","Wards destroyed","2","8","5","7","4","3","12","6","5","8"
"18","Control Wards Purchased","2","5","7","3","12","2","3","3","2","11"
"19","Detector Wards Placed","2","5","6","3","12","2","2","2","2","10"
"20","VSPM","1.06","1.15","1.15","1.31","2.21","0.61","1.52","0.86","0.98","2.25"
"21","WPM","0.41","0.25","0.41","0.41","1.6","0.33","0.12","0.2","0.33","1.27"
"22","VWPM","0.08","0.2","0.29","0.12","0.49","0.08","0.12","0.12","0.08","0.45"
"23","WCPM","0.08","0.33","0.2","0.29","0.16","0.12","0.49","0.25","0.2","0.33"
"24","VS%","15.5%","16.7%","16.7%","19%","32.1%","9.9%","24.3%","13.8%","15.8%","36.2%"
"25","Total damage to Champion","9422","11327","11290","14595","6230","10304","5681","8377","13784","4952"
"26","Physical Damage","7720","9000","734","13181","738","2529","4245","6964","7895","474"
"27","Magic Damage","1702","1640","10556","287","2375","7775","684","737","5618","3651"
"28","True Damage","0","687","0","1127","3117","0","752","676","271","827"
"29","DPM","386","464","462","598","255","422","233","343","565","203"
"30","DMG%","17.8%","21.4%","21.4%","27.6%","11.8%","23.9%","13.2%","19.4%","32%","11.5%"
"31","K+A Per Minute","0.53","0.78","0.66","0.61","0.7","0.04","0.04","0.04","0.08","0.04"
"32","KP%","61.9%","90.5%","76.2%","71.4%","81%","50%","50%","50%","100%","50%"
"33","Solo kills","","","","","","","","","",""
"34","Double kills","0","0","0","1","0","0","0","0","0","0"
"35","Triple kills","0","0","0","1","0","0","0","0","0","0"
"36","Quadra kills","0","0","0","0","0","0","0","0","0","0"
"37","Penta kills","0","0","0","0","0","0","0","0","0","0"
"38","GD@15","856","1804","889","66","686","-856","-1804","-889","-66","-686"
"39","CSD@15","8","-1","-11","-2","5","-8","1","11","2","-5"
"40","XPD@15","-53","280","14","311","1022","53","-280","-14","-311","-1022"
"41","LVLD@15","0","0","0","1","1","0","0","0","-1","-1"
"42","Objectives Stolen","0","0","0","0","0","0","0","0","0","0"
"43","Damage dealt to turrets","5183","4516","1491","5414","615","0","0","0","3592","0"
"44","Damage dealt to buildings","5183","4516","1491","5414","615","0","0","0","3592","0"
"45","Total heal","2853","15781","5603","1321","96","1598","5560","834","743","160"
"46","Total Heals On Teammates","0","0","0","0","0","0","0","0","0","183"
"47","Damage self mitigated","8490","18090","8877","5345","6772","7521","14817","6590","7771","8365"
"48","Total Damage Shielded On Teammates","0","0","0","0","1964","0","0","0","0","0"
"49","Time ccing others","7","16","23","1","16","7","9","10","2","16"
"50","Total Time CC Dealt","226","328","384","22","121","16","82","65","48","29"
"51","Total damage taken","12308","22541","11145","9713","10398","10868","20635","10082","12684","10705"
"52","Total Time Spent Dead","0","0","0","16","28","81","160","131","109","93"
