"","Var.1","Var.2","Var.3","Var.4","Var.5","Var.6","Var.7","Var.8","Var.9","Var.10","Var.11"
"1","Player","Vizicsacsi","Xerxe","Dajor","Kobbe","JeongHoon","Agresivoo","Cinkrof","Nuclearint","xmatty","Erdote"
"2","Role","TOP","JUNGLE","MID","ADC","SUPPORT","TOP","JUNGLE","MID","ADC","SUPPORT"
"3","Level","16","15","17","15","13","16","13","16","14","11"
"4","Kills","1","3","4","3","1","1","0","1","2","0"
"5","Deaths","0","0","0","1","3","2","3","2","4","1"
"6","Assists","8","7","4","5","9","1","2","2","1","4"
"7","KDA","Perfect KDA","Perfect KDA","Perfect KDA","8","3.3","1","0.7","1.5","0.8","4"
"8","CS","222","218","301","280","31","269","157","278","250","42"
"9","CS in Team's Jungle","0","183","12","11","0","8","145","32","9","0"
"10","CS in Enemy Jungle","","","","","","","","","",""
"11","CSM","7.1","7","9.7","9","1","8.6","5","8.9","8","1.3"
"12","Golds","10979","11914","13420","12601","7566","10505","8249","10812","11694","6453"
"13","GPM","353","383","431","405","243","338","265","347","376","207"
"14","GOLD%","19.4%","21.1%","23.8%","22.3%","13.4%","22%","17.3%","22.7%","24.5%","13.5%"
"15","Vision Score","32","44","45","46","67","32","35","27","21","108"
"16","Wards placed","18","6","15","11","45","13","10","11","7","63"
"17","Wards destroyed","5","14","8","15","5","3","9","4","7","18"
"18","Control Wards Purchased","7","9","5","2","16","7","9","8","1","24"
"19","Detector Wards Placed","7","4","4","2","13","7","9","7","1","22"
"20","VSPM","1.03","1.41","1.45","1.48","2.15","1.03","1.12","0.87","0.67","3.47"
"21","WPM","0.58","0.19","0.48","0.35","1.45","0.42","0.32","0.35","0.22","2.02"
"22","VWPM","0.22","0.29","0.16","0.06","0.51","0.22","0.29","0.26","0.03","0.77"
"23","WCPM","0.16","0.45","0.26","0.48","0.16","0.1","0.29","0.13","0.22","0.58"
"24","VS%","13.7%","18.8%","19.2%","19.7%","28.6%","14.3%","15.7%","12.1%","9.4%","48.4%"
"25","Total damage to Champion","16257","12534","29372","19318","5794","10337","4601","12702","21062","5128"
"26","Physical Damage","5547","9888","533","8753","159","1056","1282","131","18524","890"
"27","Magic Damage","10710","1860","28764","10565","4825","5279","2875","12471","516","3328"
"28","True Damage","0","786","75","0","810","4002","444","100","2022","910"
"29","DPM","522","403","944","621","186","332","148","408","677","165"
"30","DMG%","19.5%","15.1%","35.3%","23.2%","7%","19.2%","8.5%","23.6%","39.1%","9.5%"
"31","K+A Per Minute","0.29","0.32","0.26","0.26","0.32","0.06","0.06","0.1","0.1","0.13"
"32","KP%","75%","83.3%","66.7%","66.7%","83.3%","50%","50%","75%","75%","100%"
"33","Solo kills","","","1","","","","","","",""
"34","Double kills","0","1","1","1","0","0","0","0","0","0"
"35","Triple kills","0","0","0","0","0","0","0","0","0","0"
"36","Quadra kills","0","0","0","0","0","0","0","0","0","0"
"37","Penta kills","0","0","0","0","0","0","0","0","0","0"
"38","GD@15","206","104","104","-548","-205","-206","-104","-104","548","205"
"39","CSD@15","5","4","3","7","3","-5","-4","-3","-7","-3"
"40","XPD@15","-62","-106","100","-307","611","62","106","-100","307","-611"
"41","LVLD@15","0","0","0","0","0","0","0","0","0","0"
"42","Objectives Stolen","0","0","0","0","0","0","0","0","0","0"
"43","Damage dealt to turrets","4776","317","3914","9845","243","0","0","0","4625","0"
"44","Damage dealt to buildings","4776","317","3914","9845","243","0","0","0","4625","0"
"45","Total heal","3764","12276","1384","1727","5393","4216","9091","3132","2079","4544"
"46","Total Heals On Teammates","0","0","0","659","257","0","0","0","652","822"
"47","Damage self mitigated","23116","15192","12526","9195","14868","18625","30838","17756","7356","15780"
"48","Total Damage Shielded On Teammates","0","0","0","0","2198","0","0","0","0","3537"
"49","Time ccing others","40","8","9","6","14","4","12","19","5","18"
"50","Total Time CC Dealt","434","343","271","98","91","70","436","619","81","50"
"51","Total damage taken","19799","23669","9341","16854","18065","26126","27078","23727","13977","14887"
"52","Total Time Spent Dead","0","0","0","0","67","49","123","77","159","36"
