"","Var.1","Var.2","Var.3","Var.4","Var.5","Var.6","Var.7","Var.8","Var.9","Var.10","Var.11"
"1","Player","Vizicsacsi","Xerxe","Dajor","Kobbe","JeongHoon","Agresivoo","Cinkrof","Nuclearint","xmatty","Erdote"
"2","Role","TOP","JUNGLE","MID","ADC","SUPPORT","TOP","JUNGLE","MID","ADC","SUPPORT"
"3","Level","18","15","17","16","13","16","14","16","15","12"
"4","Kills","4","4","1","3","0","0","1","2","1","0"
"5","Deaths","1","0","1","0","2","3","3","2","3","1"
"6","Assists","6","6","9","7","11","1","2","0","1","3"
"7","KDA","10","Perfect KDA","10","Perfect KDA","5.5","0.3","1","1","0.7","3"
"8","CS","311","195","274","308","35","288","189","269","298","44"
"9","CS in Team's Jungle","20","176","6","17","0","16","148","8","17","0"
"10","CS in Enemy Jungle","","","","","","","","","",""
"11","CSM","9.6","6","8.4","9.5","1.1","8.8","5.8","8.3","9.2","1.4"
"12","Golds","15375","12828","12351","14792","7712","11307","9671","11456","12241","6647"
"13","GPM","472","394","379","454","237","347","297","352","376","204"
"14","GOLD%","24.4%","20.3%","19.6%","23.5%","12.2%","22%","18.8%","22.3%","23.9%","13%"
"15","Vision Score","48","37","20","48","131","40","54","16","25","90"
"16","Wards placed","19","8","10","12","82","8","12","3","12","53"
"17","Wards destroyed","2","11","2","15","14","9","22","7","10","18"
"18","Control Wards Purchased","11","7","6","6","11","4","13","3","3","12"
"19","Detector Wards Placed","9","6","6","6","11","3","10","1","3","9"
"20","VSPM","1.47","1.14","0.61","1.47","4.02","1.23","1.66","0.49","0.77","2.76"
"21","WPM","0.58","0.25","0.31","0.37","2.52","0.25","0.37","0.09","0.37","1.63"
"22","VWPM","0.34","0.22","0.18","0.18","0.34","0.12","0.4","0.09","0.09","0.37"
"23","WCPM","0.06","0.34","0.06","0.46","0.43","0.28","0.68","0.22","0.31","0.55"
"24","VS%","16.9%","13%","7%","16.9%","46.1%","17.8%","24%","7.1%","11.1%","40%"
"25","Total damage to Champion","23835","13027","16325","13955","4659","11719","8774","10662","14249","1957"
"26","Physical Damage","17769","10410","1303","5834","518","9392","7532","160","13218","337"
"27","Magic Damage","4636","1289","15022","8031","3377","2327","804","10502","941","1620"
"28","True Damage","1430","1328","0","90","764","0","438","0","90","0"
"29","DPM","732","400","502","429","143","360","270","328","438","60"
"30","DMG%","33.2%","18.1%","22.7%","19.4%","6.5%","24.7%","18.5%","22.5%","30.1%","4.1%"
"31","K+A Per Minute","0.31","0.31","0.31","0.31","0.34","0.03","0.09","0.06","0.06","0.09"
"32","KP%","83.3%","83.3%","83.3%","83.3%","91.7%","25%","75%","50%","50%","75%"
"33","Solo kills","","","","","","","","","",""
"34","Double kills","0","1","0","0","0","0","0","0","0","0"
"35","Triple kills","0","0","0","0","0","0","0","0","0","0"
"36","Quadra kills","0","0","0","0","0","0","0","0","0","0"
"37","Penta kills","0","0","0","0","0","0","0","0","0","0"
"38","GD@15","206","454","-487","11","27","-206","-454","487","-11","-27"
"39","CSD@15","2","-8","3","2","-3","-2","8","-3","-2","3"
"40","XPD@15","163","-577","289","-143","-397","-163","577","-289","143","397"
"41","LVLD@15","0","-1","1","0","0","0","1","-1","0","0"
"42","Objectives Stolen","0","0","0","0","0","0","0","0","0","0"
"43","Damage dealt to turrets","9688","5424","3618","8279","347","1442","0","2023","3330","25"
"44","Damage dealt to buildings","9688","5424","3618","8279","347","1442","0","2023","3330","25"
"45","Total heal","5023","9906","1944","872","3283","2799","9343","2268","3697","3251"
"46","Total Heals On Teammates","0","0","0","295","1443","0","0","0","0","2442"
"47","Damage self mitigated","12749","18447","10618","6198","11571","25059","20228","12539","10894","4056"
"48","Total Damage Shielded On Teammates","0","0","0","0","1919","0","0","0","0","1388"
"49","Time ccing others","11","16","25","6","15","17","14","18","12","1"
"50","Total Time CC Dealt","347","217","729","96","47","493","817","476","160","21"
"51","Total damage taken","17411","22769","11139","11337","11267","26405","25284","18468","17705","7425"
"52","Total Time Spent Dead","38","0","21","0","35","99","74","42","74","31"
