Player,Team,Pos,GP,Wrate,Counterpickratre,K,D,A,KDA,KP,Killshare,Deathperc,Fbperc,GD10,XPD10,CSD10,CSPM,CreepshareP15,DPM,DMGperc,DpercP15,EGPM,GOLDperc,STL,WPM,CWPM,WCPM
Aiming,KT Rolster,ADC,43,0.44,0.56,184,92,177,3.9,0.70,0.36,0.17,0.26,31,-26,1,10.1,0.34,552,0.30,0.34,324,0.28,0,0.57,0.16,0.44
Aria,KT Rolster,Middle,29,0.41,0.38,58,61,141,3.3,0.63,0.18,0.17,0.17,-153,-48,-7.7,8,0.23,395,0.23,0.22,238,0.22,0,0.65,0.31,0.34
Baut,Hanwha Life Esports,Support,5,0.20,0.80,2,15,29,2.1,0.59,0.04,0.25,0.20,-5,117,-0.6,1,0.02,109,0.07,0.06,91,0.08,0,1.77,0.56,0.29
Bdd,Nongshim RedForce,Middle,40,0.38,0.68,92,84,176,3.2,0.62,0.21,0.16,0.18,15,2,1.6,8.4,0.24,419,0.24,0.24,245,0.23,0,0.52,0.27,0.24
BeryL,DRX,Support,40,0.53,0.80,23,126,282,2.4,0.70,0.05,0.27,0.33,-21,81,2.4,1.2,0.03,131,0.07,0.06,102,0.09,0,1.7,0.56,0.49
Blessing,Nongshim RedForce,Support,1,0.00,1.00,0,6,9,1.5,0.82,0.00,0.32,0.00,274,156,2,1,0.02,124,0.07,0.06,79,0.07,0,2.03,0.91,0.36
Burdol,DWG KIA,Top,36,0.67,0.50,73,75,153,3,0.53,0.17,0.24,0.11,-87,65,-3.6,8.1,0.25,418,0.24,0.22,244,0.22,0,0.35,0.21,0.25
Canna,Nongshim RedForce,Top,41,0.39,0.44,119,106,156,2.6,0.61,0.26,0.20,0.20,202,178,2.6,8.8,0.27,519,0.29,0.28,274,0.25,0,0.38,0.22,0.18
Canyon,DWG KIA,Jungle,42,0.64,0.57,106,86,266,4.3,0.72,0.21,0.21,0.38,158,180,3.4,6.3,0.17,284,0.16,0.17,208,0.19,12,0.43,0.37,0.35
Cheoni,Hanwha Life Esports,ADC,4,0.00,0.50,7,10,14,2.1,0.57,0.19,0.15,0.25,-41,-14,-1,9.9,0.34,352,0.24,0.26,286,0.27,0,0.45,0.17,0.3
Chovy,Gen.G,Middle,32,0.75,0.63,140,41,196,8.2,0.72,0.30,0.13,0.22,159,87,5.2,9.6,0.28,606,0.29,0.28,318,0.26,0,0.57,0.11,0.51
Chovy,Gen.G,Top,2,0.00,1.00,4,8,7,1.4,0.48,0.17,0.24,0.00,-89,-246,4.5,9.4,0.29,418,0.19,0.16,281,0.26,0,0.31,0.15,0.34
Clear,DRX,Top,1,1.00,1.00,2,5,4,1.2,0.46,0.15,0.46,0.00,-639,-274,-4,8.1,0.21,678,0.27,0.25,220,0.19,0,0.3,0.24,0.3
Clozer,Liiv SANDBOX,Middle,36,0.31,0.22,80,103,134,2.1,0.67,0.25,0.20,0.33,-151,-115,-1.6,8.9,0.27,456,0.28,0.29,258,0.25,0,0.38,0.14,0.18
Clozer,Liiv SANDBOX,Top,1,0.00,1.00,1,4,0,0.3,0.25,0.25,0.24,0.00,-114,-30,2,9.2,0.27,496,0.37,0.35,233,0.24,0,0.3,0.05,0.15
Croco,Liiv SANDBOX,Jungle,37,0.30,0.62,80,99,166,2.5,0.76,0.25,0.18,0.35,-73,-54,1.3,5.7,0.15,237,0.15,0.15,194,0.19,2,0.38,0.29,0.43
Cuzz,KT Rolster,Jungle,40,0.45,0.48,80,94,247,3.5,0.67,0.16,0.19,0.35,-39,-22,0.4,5.9,0.15,248,0.14,0.14,194,0.17,3,0.4,0.32,0.46
Deft,DRX,ADC,40,0.55,0.38,158,79,165,4.1,0.72,0.35,0.17,0.25,69,80,4.3,9.8,0.32,541,0.29,0.31,309,0.28,1,0.49,0.16,0.34
Delight,Fredit BRION,Support,43,0.49,0.60,34,123,311,2.8,0.70,0.07,0.26,0.33,13,-61,0.7,1.2,0.03,126,0.07,0.07,101,0.09,0,1.82,0.59,0.52
deokdam,DWG KIA,ADC,42,0.64,0.52,177,64,171,5.4,0.68,0.34,0.16,0.24,207,-16,-0.1,9.4,0.32,508,0.28,0.30,310,0.27,0,0.39,0.12,0.35
DnDn,Nongshim RedForce,Top,2,0.00,0.50,1,5,2,0.6,0.50,0.17,0.17,0.00,-580,-636,-20.5,8.2,0.26,274,0.23,0.13,201,0.23,0,0.49,0.33,0.17
Doran,Gen.G,Top,36,0.72,0.47,100,92,200,3.3,0.58,0.19,0.25,0.25,102,5,3.2,8.7,0.25,533,0.26,0.23,281,0.23,1,0.39,0.21,0.25
Dove,Liiv SANDBOX,Middle,1,0.00,0.00,2,3,1,1,0.75,0.50,0.18,0.00,-317,201,2,8.3,0.22,310,0.23,0.24,227,0.24,0,0.45,0.15,0.35
Dove,Liiv SANDBOX,Top,36,0.31,0.50,62,119,113,1.5,0.55,0.19,0.23,0.11,-14,-117,-0.6,7.8,0.23,413,0.25,0.22,231,0.22,0,0.31,0.16,0.17
Dread,Nongshim RedForce,Jungle,43,0.37,0.42,102,114,213,2.8,0.69,0.22,0.20,0.44,148,96,0.7,5.9,0.14,224,0.13,0.13,186,0.17,6,0.5,0.43,0.44
Dread,Nongshim RedForce,Top,2,0.00,0.50,3,4,4,1.8,0.64,0.27,0.15,0.50,237,-25,5,10.4,0.35,438,0.40,0.35,312,0.30,0,0.28,0.14,0.19
DuDu,Hanwha Life Esports,Top,43,0.28,0.58,83,123,141,1.8,0.53,0.20,0.22,0.12,-38,11,-0.3,8,0.24,404,0.24,0.21,234,0.22,0,0.37,0.23,0.22
Effort,Nongshim RedForce,Support,14,0.29,0.21,9,57,83,1.6,0.61,0.06,0.27,0.14,-67,-129,1.4,1,0.02,85,0.05,0.05,84,0.08,0,1.93,0.62,0.34
Ellim,Kwangdong Freecs,Jungle,43,0.49,0.43,86,115,251,2.9,0.66,0.17,0.27,0.33,-154,-77,-4.9,5.2,0.12,229,0.12,0.12,168,0.16,5,0.58,0.43,0.45
Envyy,Liiv SANDBOX,ADC,9,0.22,0.78,19,24,27,1.9,0.63,0.26,0.17,0.11,-175,31,-2.6,9.2,0.32,403,0.25,0.26,257,0.26,0,0.4,0.12,0.26
Faker,T1,Middle,43,0.84,0.56,160,81,235,4.9,0.58,0.23,0.18,0.12,84,-26,-1,8.4,0.24,519,0.25,0.25,281,0.22,0,0.58,0.17,0.3
FATE,Kwangdong Freecs,Middle,43,0.49,0.60,128,65,231,5.5,0.70,0.25,0.15,0.26,86,44,4.1,8.6,0.26,501,0.27,0.27,261,0.24,0,0.56,0.25,0.33
Feisty,Fredit BRION,Middle,2,0.00,1.00,2,5,4,1.2,0.75,0.25,0.12,0.00,-476,-247,-8.5,8.2,0.25,351,0.25,0.29,212,0.26,0,0.46,0.2,0.18
FIESTA,Nongshim RedForce,Middle,5,0.20,0.40,4,19,17,1.1,0.62,0.12,0.23,0.00,-378,-356,-8.4,8.3,0.23,402,0.24,0.24,222,0.21,0,0.42,0.22,0.25
Gamin,Fredit BRION,ADC,2,0.00,0.50,1,8,2,0.4,0.38,0.13,0.20,0.00,-223,-98,-8.5,8.1,0.30,229,0.17,0.16,213,0.26,0,0.31,0.08,0.31
Ghost,Nongshim RedForce,ADC,38,0.39,0.50,104,91,161,2.9,0.63,0.25,0.19,0.24,-135,92,-1.3,9.7,0.32,441,0.26,0.28,288,0.26,0,0.51,0.2,0.39
Ghost,Nongshim RedForce,Support,6,0.17,0.50,1,24,19,0.8,0.59,0.03,0.26,0.17,-72,-64,1.7,1.1,0.02,113,0.07,0.07,79,0.08,0,1.61,0.4,0.31
GIDEON,KT Rolster,Jungle,3,0.33,0.33,6,7,10,2.3,0.55,0.21,0.14,0.00,-339,-290,-3,5.7,0.14,194,0.12,0.14,187,0.18,2,0.53,0.32,0.4
Gumayusi,T1,ADC,43,0.84,0.37,219,83,241,5.5,0.67,0.32,0.18,0.33,331,83,8.4,10.2,0.33,571,0.27,0.29,345,0.28,0,0.48,0.2,0.41
HamBak,Liiv SANDBOX,Jungle,4,0.00,0.50,10,15,15,1.7,0.89,0.36,0.20,0.00,-58,-145,-7,5.3,0.14,232,0.16,0.19,179,0.19,0,0.52,0.51,0.36
Hena,Fredit BRION,ADC,43,0.49,0.40,135,72,207,4.8,0.69,0.27,0.15,0.26,-26,37,-2.3,9.7,0.31,482,0.28,0.30,300,0.27,1,0.52,0.18,0.38
Hoit,Kwangdong Freecs,Support,43,0.49,0.45,38,105,303,3.2,0.67,0.07,0.25,0.16,-111,21,0.5,1.1,0.03,118,0.07,0.06,98,0.09,0,1.78,0.58,0.44
Howling,Liiv SANDBOX,Top,4,0.00,0.25,3,14,8,0.8,0.39,0.11,0.19,0.00,-40,114,-3.3,7.9,0.25,361,0.25,0.18,204,0.22,0,0.28,0.13,0.17
Hoya,DWG KIA,Top,6,0.50,0.17,11,28,30,1.5,0.46,0.12,0.32,0.00,-290,-397,-8,6.8,0.22,344,0.19,0.14,212,0.19,0,0.51,0.37,0.26
Ice,Liiv SANDBOX,ADC,32,0.28,0.59,78,79,97,2.2,0.63,0.28,0.17,0.16,-274,-116,-6.7,9.5,0.32,405,0.25,0.27,277,0.26,0,0.4,0.13,0.39
Jun,DRX,Support,1,1.00,1.00,1,1,10,11,0.85,0.08,0.09,0.00,78,-64,-9,0.8,0.03,149,0.06,0.04,137,0.12,0,1.38,0.4,0.51
Kael,Liiv SANDBOX,Support,39,0.28,0.33,14,137,212,1.6,0.67,0.04,0.24,0.23,-166,-92,1.9,1.2,0.03,125,0.08,0.07,88,0.09,0,1.62,0.47,0.37
Karis,Hanwha Life Esports,Middle,43,0.28,0.37,99,99,198,3,0.71,0.24,0.18,0.16,-87,49,-3.4,7.9,0.22,435,0.26,0.27,229,0.22,0,0.47,0.23,0.25
Kellin,DWG KIA,Support,42,0.64,0.40,33,80,333,4.6,0.71,0.06,0.20,0.31,140,-75,-1.3,0.9,0.02,160,0.09,0.07,107,0.09,0,1.91,0.52,0.34
Keria,T1,Support,43,0.84,0.58,32,104,462,4.8,0.72,0.05,0.23,0.47,227,167,-0.3,0.9,0.02,195,0.09,0.07,119,0.10,0,1.79,0.57,0.31
Kiin,Kwangdong Freecs,Top,43,0.49,0.57,99,82,194,3.6,0.57,0.19,0.19,0.26,145,171,5.8,8.5,0.26,471,0.27,0.24,256,0.24,0,0.41,0.24,0.29
Kingen,DRX,Top,40,0.53,0.53,79,93,153,2.5,0.53,0.18,0.20,0.13,-170,-145,-2.7,8.1,0.25,503,0.27,0.25,247,0.22,0,0.35,0.19,0.24
Lava,Fredit BRION,Middle,43,0.49,0.45,149,82,216,4.5,0.74,0.30,0.17,0.19,-5,-16,-2.2,9,0.27,529,0.31,0.31,281,0.25,1,0.52,0.19,0.31
Lehends,Gen.G,Support,35,0.74,0.46,20,93,301,3.5,0.64,0.04,0.27,0.29,-70,-68,-0.7,0.9,0.02,128,0.06,0.06,104,0.08,0,1.68,0.52,0.34
Life,KT Rolster,Support,43,0.44,0.44,37,127,300,2.7,0.65,0.07,0.24,0.19,-36,-13,-1.7,1,0.02,161,0.09,0.08,101,0.09,0,1.66,0.48,0.33
Listo,Fredit BRION,Jungle,2,0.00,0.50,3,7,3,0.9,0.75,0.38,0.17,0.00,-996,-970,-15,5.1,0.13,275,0.20,0.26,153,0.19,0,0.46,0.43,0.23
Loopy,Fredit BRION,Support,2,0.00,0.00,1,10,3,0.4,0.50,0.13,0.24,0.00,-131,-353,-1,1.5,0.05,182,0.13,0.14,80,0.10,0,0.66,0.28,0.2
Lospa,Gen.G,Support,5,0.40,0.40,6,20,38,2.2,0.68,0.09,0.29,0.40,23,59,0.4,0.7,0.01,119,0.05,0.05,96,0.08,0,1.68,0.59,0.12
Morgan,Fredit BRION,Top,37,0.49,0.31,69,81,150,2.7,0.52,0.16,0.20,0.14,-41,-62,-1.5,8.4,0.25,343,0.21,0.19,246,0.22,1,0.41,0.3,0.3
Oner,T1,Jungle,43,0.84,0.42,154,84,329,5.8,0.70,0.22,0.19,0.44,155,208,4.3,5.9,0.16,304,0.14,0.15,232,0.19,9,0.39,0.28,0.4
OnFleek,Hanwha Life Esports,Jungle,38,0.29,0.55,66,125,181,2,0.67,0.18,0.25,0.26,-98,-167,-3.4,6,0.17,242,0.14,0.15,191,0.19,5,0.45,0.33,0.61
Ophelia,Gen.G,ADC,5,0.40,0.60,15,9,16,3.4,0.61,0.29,0.13,0.00,-160,90,-7,9.3,0.29,520,0.31,0.34,275,0.26,0,0.45,0.21,0.25
Ophelia,Gen.G,Middle,3,0.67,1.00,4,6,12,2.7,0.40,0.10,0.17,0.00,-586,-307,-7,7.6,0.20,385,0.19,0.19,222,0.19,1,0.55,0.17,0.25
Peach,DRX,Jungle,1,1.00,0.00,1,2,8,4.5,0.69,0.08,0.18,0.00,-816,-825,-23,9.5,0.18,198,0.08,0.08,204,0.17,1,0.47,0.2,0.67
Peanut,Gen.G,Jungle,35,0.74,0.51,103,58,240,5.9,0.68,0.21,0.17,0.40,49,35,2.5,7.1,0.16,250,0.12,0.12,219,0.18,2,0.45,0.32,0.42
Peter,Nongshim RedForce,Support,24,0.46,0.50,15,64,179,3,0.71,0.06,0.23,0.33,43,73,-0.8,0.8,0.02,155,0.09,0.09,96,0.09,0,1.64,0.52,0.31
Prove,Liiv SANDBOX,Support,2,0.00,0.50,1,9,11,1.3,0.71,0.06,0.24,0.50,140,377,7.5,1.5,0.03,177,0.12,0.11,96,0.09,0,1.85,0.71,0.55
Pyosik,DRX,Jungle,40,0.53,0.43,79,103,212,2.8,0.67,0.18,0.22,0.33,-78,-64,-0.4,6,0.15,218,0.12,0.12,185,0.17,3,0.47,0.41,0.45
Quid,Gen.G,Middle,5,0.40,0.60,16,15,20,2.4,0.61,0.27,0.23,0.20,-105,-39,-2.8,9,0.25,517,0.27,0.28,248,0.23,0,0.43,0.16,0.19
Raptor,Fredit BRION,Jungle,2,1.00,1.00,9,3,20,9.7,0.76,0.24,0.27,1.00,393,264,4.5,5.9,0.14,391,0.19,0.22,252,0.20,0,0.4,0.49,0.34
Rascal,KT Rolster,Top,43,0.44,0.60,115,124,171,2.3,0.55,0.22,0.23,0.26,112,75,0.7,8.8,0.27,435,0.24,0.22,271,0.24,3,0.38,0.22,0.24
Ruler,Gen.G,ADC,35,0.74,0.43,147,51,191,6.6,0.66,0.29,0.15,0.26,5,-31,0.7,9.9,0.31,585,0.28,0.32,324,0.26,0,0.48,0.22,0.46
SamD,Hanwha Life Esports,ADC,39,0.31,0.54,121,75,146,3.6,0.70,0.32,0.15,0.13,-56,-49,0,10.2,0.35,437,0.25,0.28,304,0.29,1,0.46,0.15,0.46
Seonbi,Hanwha Life Esports,Jungle,2,0.00,0.50,8,5,8,3.2,0.84,0.42,0.15,1.00,214,23,-8.5,5.3,0.16,327,0.23,0.30,195,0.19,0,0.37,0.42,0.49
SeTab,DRX,Middle,1,1.00,0.00,4,2,5,4.5,0.69,0.31,0.18,1.00,577,151,8,8.9,0.22,794,0.31,0.32,279,0.24,0,0.51,0.2,0.13
ShowMaker,DWG KIA,Middle,42,0.64,0.50,114,70,211,4.6,0.63,0.22,0.17,0.19,129,52,2.6,8.6,0.25,415,0.23,0.24,265,0.23,1,0.55,0.22,0.38
Soboro,Fredit BRION,Top,2,0.00,1.00,1,11,0,0.1,0.13,0.13,0.27,0.00,-296,-219,-6,6.7,0.27,365,0.26,0.16,158,0.19,0,0.28,0.05,0.05
Sw0rd,Fredit BRION,Top,6,0.50,0.83,13,15,30,2.9,0.61,0.18,0.23,0.33,-457,-266,-19.2,7.3,0.23,434,0.20,0.18,227,0.20,0,0.44,0.3,0.26
Sylvie,Nongshim RedForce,Jungle,2,0.00,1.00,4,7,3,1,0.64,0.36,0.27,0.50,16,68,-3.5,5.2,0.11,193,0.19,0.18,186,0.18,0,0.4,0.44,0.33
Taeyoon,DRX,ADC,1,0.00,0.00,1,4,0,0.3,0.25,0.25,0.22,0.00,-729,-329,-1,8.2,0.26,309,0.23,0.23,216,0.25,0,0.43,0.2,0.35
Teddy,Kwangdong Freecs,ADC,43,0.49,0.62,161,61,198,5.9,0.70,0.31,0.14,0.12,-115,-63,-3.3,9.8,0.34,508,0.27,0.30,301,0.28,3,0.6,0.22,0.37
Ten10,Liiv SANDBOX,Middle,4,0.00,0.50,3,14,17,1.4,0.71,0.11,0.19,0.00,-44,202,-0.8,7.5,0.22,316,0.22,0.26,189,0.20,0,0.74,0.35,0.41
UmTi,Fredit BRION,Jungle,41,0.46,0.58,84,94,233,3.4,0.70,0.19,0.21,0.39,41,-54,-0.9,5.9,0.14,225,0.13,0.13,186,0.17,6,0.57,0.45,0.51
VicLa,KT Rolster,Middle,14,0.50,0.71,37,32,96,4.2,0.67,0.19,0.19,0.14,-74,-24,-1.1,8.1,0.22,452,0.23,0.21,243,0.21,0,0.68,0.39,0.29
vital,Nongshim RedForce,ADC,7,0.14,0.71,15,14,12,1.9,0.60,0.33,0.13,0.14,-212,-121,-3.3,9.8,0.33,373,0.24,0.28,279,0.27,1,0.38,0.13,0.37
Vsta,Hanwha Life Esports,Support,38,0.29,0.50,29,91,237,2.9,0.73,0.08,0.19,0.13,-10,8,-1.9,0.9,0.02,168,0.10,0.09,89,0.09,0,1.66,0.55,0.32
Willer,Hanwha Life Esports,Jungle,3,0.33,0.67,5,9,19,2.7,0.71,0.15,0.35,0.00,-295,-71,-1.3,5.2,0.14,221,0.12,0.12,180,0.16,0,0.52,0.53,0.45
YoungJae,Gen.G,Jungle,5,0.40,0.40,8,19,31,2.1,0.60,0.12,0.28,0.40,-350,-193,-3,5.3,0.14,244,0.10,0.11,177,0.15,0,0.57,0.48,0.36
Zeka,DRX,Middle,40,0.53,0.48,102,67,177,4.2,0.64,0.23,0.14,0.18,40,23,4,9,0.26,483,0.25,0.26,270,0.24,0,0.41,0.18,0.27
Zest,Gen.G,Top,2,1.00,0.50,4,4,7,2.8,0.42,0.15,0.36,0.00,-237,25,-5,9.4,0.26,540,0.27,0.21,290,0.21,0,0.26,0.12,0.12
Zeus,T1,Top,43,0.84,0.42,121,99,239,3.6,0.53,0.18,0.22,0.16,-47,-57,1.4,8.2,0.25,547,0.26,0.24,278,0.22,0,0.38,0.17,0.22
